2019/06/27 14:58:36 [error] [exception.CHttpException.404] CHttpException: Tidak bisa mengurai request "api" in /Applications/MAMP/htdocs/baronang/api/yii-1.1.16/framework/web/CWebApplication.php:286
Stack trace:
#0 /Applications/MAMP/htdocs/baronang/api/yii-1.1.16/framework/web/CWebApplication.php(141): CWebApplication->runController('')
#1 /Applications/MAMP/htdocs/baronang/api/yii-1.1.16/framework/base/CApplication.php(184): CWebApplication->processRequest()
#2 /Applications/MAMP/htdocs/baronang/api/index.php(23): CApplication->run()
#3 {main}
REQUEST_URI=/baronang/api/
---
2019/06/27 14:58:36 [error] [exception.CHttpException.404] CHttpException: Tidak bisa mengurai request "themes/default/font-awesome/css/font-awesome.min.css" in /Applications/MAMP/htdocs/baronang/api/yii-1.1.16/framework/web/CWebApplication.php:286
Stack trace:
#0 /Applications/MAMP/htdocs/baronang/api/yii-1.1.16/framework/web/CWebApplication.php(141): CWebApplication->runController('themes/default/...')
#1 /Applications/MAMP/htdocs/baronang/api/yii-1.1.16/framework/base/CApplication.php(184): CWebApplication->processRequest()
#2 /Applications/MAMP/htdocs/baronang/api/index.php(23): CApplication->run()
#3 {main}
REQUEST_URI=/baronang/api/themes/default/font-awesome/css/font-awesome.min.css
HTTP_REFERER=http://localhost:8888/baronang/api/
---
2019/06/27 14:58:36 [error] [exception.CHttpException.404] CHttpException: Tidak bisa mengurai request "themes/default/assets/js/jquery-ui.min.js" in /Applications/MAMP/htdocs/baronang/api/yii-1.1.16/framework/web/CWebApplication.php:286
Stack trace:
#0 /Applications/MAMP/htdocs/baronang/api/yii-1.1.16/framework/web/CWebApplication.php(141): CWebApplication->runController('themes/default/...')
#1 /Applications/MAMP/htdocs/baronang/api/yii-1.1.16/framework/base/CApplication.php(184): CWebApplication->processRequest()
#2 /Applications/MAMP/htdocs/baronang/api/index.php(23): CApplication->run()
#3 {main}
REQUEST_URI=/baronang/api/themes/default/assets/js/jquery-ui.min.js
HTTP_REFERER=http://localhost:8888/baronang/api/
---
2019/06/27 14:58:36 [error] [exception.CHttpException.404] CHttpException: Tidak bisa mengurai request "themes/default/ionicons-2.0.1/css/ionicons.min.css" in /Applications/MAMP/htdocs/baronang/api/yii-1.1.16/framework/web/CWebApplication.php:286
Stack trace:
#0 /Applications/MAMP/htdocs/baronang/api/yii-1.1.16/framework/web/CWebApplication.php(141): CWebApplication->runController('themes/default/...')
#1 /Applications/MAMP/htdocs/baronang/api/yii-1.1.16/framework/base/CApplication.php(184): CWebApplication->processRequest()
#2 /Applications/MAMP/htdocs/baronang/api/index.php(23): CApplication->run()
#3 {main}
REQUEST_URI=/baronang/api/themes/default/ionicons-2.0.1/css/ionicons.min.css
HTTP_REFERER=http://localhost:8888/baronang/api/
---
2019/06/27 14:58:36 [error] [exception.CHttpException.404] CHttpException: Tidak bisa mengurai request "themes/default/assets/css/admin.css" in /Applications/MAMP/htdocs/baronang/api/yii-1.1.16/framework/web/CWebApplication.php:286
Stack trace:
#0 /Applications/MAMP/htdocs/baronang/api/yii-1.1.16/framework/web/CWebApplication.php(141): CWebApplication->runController('themes/default/...')
#1 /Applications/MAMP/htdocs/baronang/api/yii-1.1.16/framework/base/CApplication.php(184): CWebApplication->processRequest()
#2 /Applications/MAMP/htdocs/baronang/api/index.php(23): CApplication->run()
#3 {main}
REQUEST_URI=/baronang/api/themes/default/assets/css/admin.css
HTTP_REFERER=http://localhost:8888/baronang/api/
---
2019/06/27 14:58:36 [error] [exception.CHttpException.404] CHttpException: Tidak bisa mengurai request "themes/default/res/igomad/igomad.js" in /Applications/MAMP/htdocs/baronang/api/yii-1.1.16/framework/web/CWebApplication.php:286
Stack trace:
#0 /Applications/MAMP/htdocs/baronang/api/yii-1.1.16/framework/web/CWebApplication.php(141): CWebApplication->runController('themes/default/...')
#1 /Applications/MAMP/htdocs/baronang/api/yii-1.1.16/framework/base/CApplication.php(184): CWebApplication->processRequest()
#2 /Applications/MAMP/htdocs/baronang/api/index.php(23): CApplication->run()
#3 {main}
REQUEST_URI=/baronang/api/themes/default/res/igomad/igomad.js
HTTP_REFERER=http://localhost:8888/baronang/api/
---
2019/06/27 14:58:36 [error] [exception.CHttpException.404] CHttpException: Tidak bisa mengurai request "themes/default/assets/js/jquery-ui.min.js" in /Applications/MAMP/htdocs/baronang/api/yii-1.1.16/framework/web/CWebApplication.php:286
Stack trace:
#0 /Applications/MAMP/htdocs/baronang/api/yii-1.1.16/framework/web/CWebApplication.php(141): CWebApplication->runController('themes/default/...')
#1 /Applications/MAMP/htdocs/baronang/api/yii-1.1.16/framework/base/CApplication.php(184): CWebApplication->processRequest()
#2 /Applications/MAMP/htdocs/baronang/api/index.php(23): CApplication->run()
#3 {main}
REQUEST_URI=/baronang/api/themes/default/assets/js/jquery-ui.min.js
HTTP_REFERER=http://localhost:8888/baronang/api/
---
2019/06/27 14:58:36 [error] [exception.CHttpException.404] CHttpException: Tidak bisa mengurai request "themes/default/res/igomad/igomad.js" in /Applications/MAMP/htdocs/baronang/api/yii-1.1.16/framework/web/CWebApplication.php:286
Stack trace:
#0 /Applications/MAMP/htdocs/baronang/api/yii-1.1.16/framework/web/CWebApplication.php(141): CWebApplication->runController('themes/default/...')
#1 /Applications/MAMP/htdocs/baronang/api/yii-1.1.16/framework/base/CApplication.php(184): CWebApplication->processRequest()
#2 /Applications/MAMP/htdocs/baronang/api/index.php(23): CApplication->run()
#3 {main}
REQUEST_URI=/baronang/api/themes/default/res/igomad/igomad.js
HTTP_REFERER=http://localhost:8888/baronang/api/
---
2019/06/27 14:58:36 [error] [exception.CHttpException.404] CHttpException: Tidak bisa mengurai request "themes/default/images/icon.png" in /Applications/MAMP/htdocs/baronang/api/yii-1.1.16/framework/web/CWebApplication.php:286
Stack trace:
#0 /Applications/MAMP/htdocs/baronang/api/yii-1.1.16/framework/web/CWebApplication.php(141): CWebApplication->runController('themes/default/...')
#1 /Applications/MAMP/htdocs/baronang/api/yii-1.1.16/framework/base/CApplication.php(184): CWebApplication->processRequest()
#2 /Applications/MAMP/htdocs/baronang/api/index.php(23): CApplication->run()
#3 {main}
REQUEST_URI=/baronang/api/themes/default/images/icon.png
HTTP_REFERER=http://localhost:8888/baronang/api/
---
2019/06/27 14:58:41 [error] [exception.CHttpException.404] CHttpException: Tidak bisa mengurai request "themes/default/font-awesome/css/font-awesome.min.css" in /Applications/MAMP/htdocs/baronang/api/yii-1.1.16/framework/web/CWebApplication.php:286
Stack trace:
#0 /Applications/MAMP/htdocs/baronang/api/yii-1.1.16/framework/web/CWebApplication.php(141): CWebApplication->runController('themes/default/...')
#1 /Applications/MAMP/htdocs/baronang/api/yii-1.1.16/framework/base/CApplication.php(184): CWebApplication->processRequest()
#2 /Applications/MAMP/htdocs/baronang/api/index.php(23): CApplication->run()
#3 {main}
REQUEST_URI=/baronang/api/themes/default/font-awesome/css/font-awesome.min.css
HTTP_REFERER=http://localhost:8888/baronang/api/mobile
---
2019/06/27 14:58:41 [error] [exception.CHttpException.404] CHttpException: Tidak bisa mengurai request "themes/default/assets/css/admin.css" in /Applications/MAMP/htdocs/baronang/api/yii-1.1.16/framework/web/CWebApplication.php:286
Stack trace:
#0 /Applications/MAMP/htdocs/baronang/api/yii-1.1.16/framework/web/CWebApplication.php(141): CWebApplication->runController('themes/default/...')
#1 /Applications/MAMP/htdocs/baronang/api/yii-1.1.16/framework/base/CApplication.php(184): CWebApplication->processRequest()
#2 /Applications/MAMP/htdocs/baronang/api/index.php(23): CApplication->run()
#3 {main}
REQUEST_URI=/baronang/api/themes/default/assets/css/admin.css
HTTP_REFERER=http://localhost:8888/baronang/api/mobile
---
2019/06/27 14:58:41 [error] [exception.CHttpException.404] CHttpException: Tidak bisa mengurai request "themes/default/ionicons-2.0.1/css/ionicons.min.css" in /Applications/MAMP/htdocs/baronang/api/yii-1.1.16/framework/web/CWebApplication.php:286
Stack trace:
#0 /Applications/MAMP/htdocs/baronang/api/yii-1.1.16/framework/web/CWebApplication.php(141): CWebApplication->runController('themes/default/...')
#1 /Applications/MAMP/htdocs/baronang/api/yii-1.1.16/framework/base/CApplication.php(184): CWebApplication->processRequest()
#2 /Applications/MAMP/htdocs/baronang/api/index.php(23): CApplication->run()
#3 {main}
REQUEST_URI=/baronang/api/themes/default/ionicons-2.0.1/css/ionicons.min.css
HTTP_REFERER=http://localhost:8888/baronang/api/mobile
---
2019/06/27 14:58:41 [error] [exception.CHttpException.404] CHttpException: Tidak bisa mengurai request "themes/default/assets/js/jquery-ui.min.js" in /Applications/MAMP/htdocs/baronang/api/yii-1.1.16/framework/web/CWebApplication.php:286
Stack trace:
#0 /Applications/MAMP/htdocs/baronang/api/yii-1.1.16/framework/web/CWebApplication.php(141): CWebApplication->runController('themes/default/...')
#1 /Applications/MAMP/htdocs/baronang/api/yii-1.1.16/framework/base/CApplication.php(184): CWebApplication->processRequest()
#2 /Applications/MAMP/htdocs/baronang/api/index.php(23): CApplication->run()
#3 {main}
REQUEST_URI=/baronang/api/themes/default/assets/js/jquery-ui.min.js
HTTP_REFERER=http://localhost:8888/baronang/api/mobile
---
2019/06/27 14:58:41 [error] [exception.CHttpException.404] CHttpException: Tidak bisa mengurai request "themes/default/res/igomad/igomad.js" in /Applications/MAMP/htdocs/baronang/api/yii-1.1.16/framework/web/CWebApplication.php:286
Stack trace:
#0 /Applications/MAMP/htdocs/baronang/api/yii-1.1.16/framework/web/CWebApplication.php(141): CWebApplication->runController('themes/default/...')
#1 /Applications/MAMP/htdocs/baronang/api/yii-1.1.16/framework/base/CApplication.php(184): CWebApplication->processRequest()
#2 /Applications/MAMP/htdocs/baronang/api/index.php(23): CApplication->run()
#3 {main}
REQUEST_URI=/baronang/api/themes/default/res/igomad/igomad.js
HTTP_REFERER=http://localhost:8888/baronang/api/mobile
---
2019/06/27 14:58:48 [error] [exception.CHttpException.404] CHttpException: Sistem tidak bisa menemukan action "index" seperti yang diminta. in /Applications/MAMP/htdocs/baronang/api/yii-1.1.16/framework/web/CController.php:483
Stack trace:
#0 /Applications/MAMP/htdocs/baronang/api/yii-1.1.16/framework/web/CController.php(270): CController->missingAction('')
#1 /Applications/MAMP/htdocs/baronang/api/yii-1.1.16/framework/web/CWebApplication.php(282): CController->run('')
#2 /Applications/MAMP/htdocs/baronang/api/yii-1.1.16/framework/web/CWebApplication.php(141): CWebApplication->runController('parking')
#3 /Applications/MAMP/htdocs/baronang/api/yii-1.1.16/framework/base/CApplication.php(184): CWebApplication->processRequest()
#4 /Applications/MAMP/htdocs/baronang/api/index.php(23): CApplication->run()
#5 {main}
REQUEST_URI=/baronang/api/parking
---
2019/06/27 14:58:48 [error] [exception.CHttpException.404] CHttpException: Tidak bisa mengurai request "themes/default/ionicons-2.0.1/css/ionicons.min.css" in /Applications/MAMP/htdocs/baronang/api/yii-1.1.16/framework/web/CWebApplication.php:286
Stack trace:
#0 /Applications/MAMP/htdocs/baronang/api/yii-1.1.16/framework/web/CWebApplication.php(141): CWebApplication->runController('themes/default/...')
#1 /Applications/MAMP/htdocs/baronang/api/yii-1.1.16/framework/base/CApplication.php(184): CWebApplication->processRequest()
#2 /Applications/MAMP/htdocs/baronang/api/index.php(23): CApplication->run()
#3 {main}
REQUEST_URI=/baronang/api/themes/default/ionicons-2.0.1/css/ionicons.min.css
HTTP_REFERER=http://localhost:8888/baronang/api/parking
---
2019/06/27 14:58:48 [error] [exception.CHttpException.404] CHttpException: Tidak bisa mengurai request "themes/default/font-awesome/css/font-awesome.min.css" in /Applications/MAMP/htdocs/baronang/api/yii-1.1.16/framework/web/CWebApplication.php:286
Stack trace:
#0 /Applications/MAMP/htdocs/baronang/api/yii-1.1.16/framework/web/CWebApplication.php(141): CWebApplication->runController('themes/default/...')
#1 /Applications/MAMP/htdocs/baronang/api/yii-1.1.16/framework/base/CApplication.php(184): CWebApplication->processRequest()
#2 /Applications/MAMP/htdocs/baronang/api/index.php(23): CApplication->run()
#3 {main}
REQUEST_URI=/baronang/api/themes/default/font-awesome/css/font-awesome.min.css
HTTP_REFERER=http://localhost:8888/baronang/api/parking
---
2019/06/27 14:58:48 [error] [exception.CHttpException.404] CHttpException: Tidak bisa mengurai request "themes/default/assets/css/admin.css" in /Applications/MAMP/htdocs/baronang/api/yii-1.1.16/framework/web/CWebApplication.php:286
Stack trace:
#0 /Applications/MAMP/htdocs/baronang/api/yii-1.1.16/framework/web/CWebApplication.php(141): CWebApplication->runController('themes/default/...')
#1 /Applications/MAMP/htdocs/baronang/api/yii-1.1.16/framework/base/CApplication.php(184): CWebApplication->processRequest()
#2 /Applications/MAMP/htdocs/baronang/api/index.php(23): CApplication->run()
#3 {main}
REQUEST_URI=/baronang/api/themes/default/assets/css/admin.css
HTTP_REFERER=http://localhost:8888/baronang/api/parking
---
2019/06/27 14:58:48 [error] [exception.CHttpException.404] CHttpException: Tidak bisa mengurai request "themes/default/assets/js/jquery-ui.min.js" in /Applications/MAMP/htdocs/baronang/api/yii-1.1.16/framework/web/CWebApplication.php:286
Stack trace:
#0 /Applications/MAMP/htdocs/baronang/api/yii-1.1.16/framework/web/CWebApplication.php(141): CWebApplication->runController('themes/default/...')
#1 /Applications/MAMP/htdocs/baronang/api/yii-1.1.16/framework/base/CApplication.php(184): CWebApplication->processRequest()
#2 /Applications/MAMP/htdocs/baronang/api/index.php(23): CApplication->run()
#3 {main}
REQUEST_URI=/baronang/api/themes/default/assets/js/jquery-ui.min.js
HTTP_REFERER=http://localhost:8888/baronang/api/parking
---
2019/06/27 14:58:48 [error] [exception.CHttpException.404] CHttpException: Tidak bisa mengurai request "themes/default/res/igomad/igomad.js" in /Applications/MAMP/htdocs/baronang/api/yii-1.1.16/framework/web/CWebApplication.php:286
Stack trace:
#0 /Applications/MAMP/htdocs/baronang/api/yii-1.1.16/framework/web/CWebApplication.php(141): CWebApplication->runController('themes/default/...')
#1 /Applications/MAMP/htdocs/baronang/api/yii-1.1.16/framework/base/CApplication.php(184): CWebApplication->processRequest()
#2 /Applications/MAMP/htdocs/baronang/api/index.php(23): CApplication->run()
#3 {main}
REQUEST_URI=/baronang/api/themes/default/res/igomad/igomad.js
HTTP_REFERER=http://localhost:8888/baronang/api/parking
---
