2019/09/25 13:55:14 [error] [exception.CHttpException.404] exception 'CHttpException' with message 'Tidak bisa mengurai request "api"' in /Applications/MAMP/htdocs/cloud-parking-api/yii-1.1.16/framework/web/CWebApplication.php:286
Stack trace:
#0 /Applications/MAMP/htdocs/cloud-parking-api/yii-1.1.16/framework/web/CWebApplication.php(141): CWebApplication->runController('')
#1 /Applications/MAMP/htdocs/cloud-parking-api/yii-1.1.16/framework/base/CApplication.php(184): CWebApplication->processRequest()
#2 /Applications/MAMP/htdocs/cloud-parking-api/index.php(23): CApplication->run()
#3 {main}
REQUEST_URI=/cloud-parking-api/
---
2019/09/25 13:55:15 [error] [exception.CHttpException.404] exception 'CHttpException' with message 'Tidak bisa mengurai request "themes/default/assets/css/admin.css"' in /Applications/MAMP/htdocs/cloud-parking-api/yii-1.1.16/framework/web/CWebApplication.php:286
Stack trace:
#0 /Applications/MAMP/htdocs/cloud-parking-api/yii-1.1.16/framework/web/CWebApplication.php(141): CWebApplication->runController('themes/default/...')
#1 /Applications/MAMP/htdocs/cloud-parking-api/yii-1.1.16/framework/base/CApplication.php(184): CWebApplication->processRequest()
#2 /Applications/MAMP/htdocs/cloud-parking-api/index.php(23): CApplication->run()
#3 {main}
REQUEST_URI=/cloud-parking-api/themes/default/assets/css/admin.css
HTTP_REFERER=http://localhost:8888/cloud-parking-api/
---
2019/09/25 13:55:15 [error] [exception.CHttpException.404] exception 'CHttpException' with message 'Tidak bisa mengurai request "themes/default/ionicons-2.0.1/css/ionicons.min.css"' in /Applications/MAMP/htdocs/cloud-parking-api/yii-1.1.16/framework/web/CWebApplication.php:286
Stack trace:
#0 /Applications/MAMP/htdocs/cloud-parking-api/yii-1.1.16/framework/web/CWebApplication.php(141): CWebApplication->runController('themes/default/...')
#1 /Applications/MAMP/htdocs/cloud-parking-api/yii-1.1.16/framework/base/CApplication.php(184): CWebApplication->processRequest()
#2 /Applications/MAMP/htdocs/cloud-parking-api/index.php(23): CApplication->run()
#3 {main}
REQUEST_URI=/cloud-parking-api/themes/default/ionicons-2.0.1/css/ionicons.min.css
HTTP_REFERER=http://localhost:8888/cloud-parking-api/
---
2019/09/25 13:55:15 [error] [exception.CHttpException.404] exception 'CHttpException' with message 'Tidak bisa mengurai request "themes/default/assets/js/jquery-ui.min.js"' in /Applications/MAMP/htdocs/cloud-parking-api/yii-1.1.16/framework/web/CWebApplication.php:286
Stack trace:
#0 /Applications/MAMP/htdocs/cloud-parking-api/yii-1.1.16/framework/web/CWebApplication.php(141): CWebApplication->runController('themes/default/...')
#1 /Applications/MAMP/htdocs/cloud-parking-api/yii-1.1.16/framework/base/CApplication.php(184): CWebApplication->processRequest()
#2 /Applications/MAMP/htdocs/cloud-parking-api/index.php(23): CApplication->run()
#3 {main}
REQUEST_URI=/cloud-parking-api/themes/default/assets/js/jquery-ui.min.js
HTTP_REFERER=http://localhost:8888/cloud-parking-api/
---
2019/09/25 13:55:15 [error] [exception.CHttpException.404] exception 'CHttpException' with message 'Tidak bisa mengurai request "themes/default/font-awesome/css/font-awesome.min.css"' in /Applications/MAMP/htdocs/cloud-parking-api/yii-1.1.16/framework/web/CWebApplication.php:286
Stack trace:
#0 /Applications/MAMP/htdocs/cloud-parking-api/yii-1.1.16/framework/web/CWebApplication.php(141): CWebApplication->runController('themes/default/...')
#1 /Applications/MAMP/htdocs/cloud-parking-api/yii-1.1.16/framework/base/CApplication.php(184): CWebApplication->processRequest()
#2 /Applications/MAMP/htdocs/cloud-parking-api/index.php(23): CApplication->run()
#3 {main}
REQUEST_URI=/cloud-parking-api/themes/default/font-awesome/css/font-awesome.min.css
HTTP_REFERER=http://localhost:8888/cloud-parking-api/
---
2019/09/25 13:55:15 [error] [exception.CHttpException.404] exception 'CHttpException' with message 'Tidak bisa mengurai request "themes/default/res/igomad/igomad.js"' in /Applications/MAMP/htdocs/cloud-parking-api/yii-1.1.16/framework/web/CWebApplication.php:286
Stack trace:
#0 /Applications/MAMP/htdocs/cloud-parking-api/yii-1.1.16/framework/web/CWebApplication.php(141): CWebApplication->runController('themes/default/...')
#1 /Applications/MAMP/htdocs/cloud-parking-api/yii-1.1.16/framework/base/CApplication.php(184): CWebApplication->processRequest()
#2 /Applications/MAMP/htdocs/cloud-parking-api/index.php(23): CApplication->run()
#3 {main}
REQUEST_URI=/cloud-parking-api/themes/default/res/igomad/igomad.js
HTTP_REFERER=http://localhost:8888/cloud-parking-api/
---
2019/09/25 13:55:15 [error] [exception.CHttpException.404] exception 'CHttpException' with message 'Tidak bisa mengurai request "themes/default/assets/js/jquery-ui.min.js"' in /Applications/MAMP/htdocs/cloud-parking-api/yii-1.1.16/framework/web/CWebApplication.php:286
Stack trace:
#0 /Applications/MAMP/htdocs/cloud-parking-api/yii-1.1.16/framework/web/CWebApplication.php(141): CWebApplication->runController('themes/default/...')
#1 /Applications/MAMP/htdocs/cloud-parking-api/yii-1.1.16/framework/base/CApplication.php(184): CWebApplication->processRequest()
#2 /Applications/MAMP/htdocs/cloud-parking-api/index.php(23): CApplication->run()
#3 {main}
REQUEST_URI=/cloud-parking-api/themes/default/assets/js/jquery-ui.min.js
HTTP_REFERER=http://localhost:8888/cloud-parking-api/
---
2019/09/25 13:55:15 [error] [exception.CHttpException.404] exception 'CHttpException' with message 'Tidak bisa mengurai request "themes/default/res/igomad/igomad.js"' in /Applications/MAMP/htdocs/cloud-parking-api/yii-1.1.16/framework/web/CWebApplication.php:286
Stack trace:
#0 /Applications/MAMP/htdocs/cloud-parking-api/yii-1.1.16/framework/web/CWebApplication.php(141): CWebApplication->runController('themes/default/...')
#1 /Applications/MAMP/htdocs/cloud-parking-api/yii-1.1.16/framework/base/CApplication.php(184): CWebApplication->processRequest()
#2 /Applications/MAMP/htdocs/cloud-parking-api/index.php(23): CApplication->run()
#3 {main}
REQUEST_URI=/cloud-parking-api/themes/default/res/igomad/igomad.js
HTTP_REFERER=http://localhost:8888/cloud-parking-api/
---
2019/09/25 13:55:15 [error] [exception.CHttpException.404] exception 'CHttpException' with message 'Tidak bisa mengurai request "themes/default/images/icon.png"' in /Applications/MAMP/htdocs/cloud-parking-api/yii-1.1.16/framework/web/CWebApplication.php:286
Stack trace:
#0 /Applications/MAMP/htdocs/cloud-parking-api/yii-1.1.16/framework/web/CWebApplication.php(141): CWebApplication->runController('themes/default/...')
#1 /Applications/MAMP/htdocs/cloud-parking-api/yii-1.1.16/framework/base/CApplication.php(184): CWebApplication->processRequest()
#2 /Applications/MAMP/htdocs/cloud-parking-api/index.php(23): CApplication->run()
#3 {main}
REQUEST_URI=/cloud-parking-api/themes/default/images/icon.png
HTTP_REFERER=http://localhost:8888/cloud-parking-api/
---
2019/09/25 13:55:50 [error] [exception.CHttpException.404] exception 'CHttpException' with message 'Tidak bisa mengurai request "api"' in /Applications/MAMP/htdocs/cloud-parking-api/yii-1.1.16/framework/web/CWebApplication.php:286
Stack trace:
#0 /Applications/MAMP/htdocs/cloud-parking-api/yii-1.1.16/framework/web/CWebApplication.php(141): CWebApplication->runController('api')
#1 /Applications/MAMP/htdocs/cloud-parking-api/yii-1.1.16/framework/base/CApplication.php(184): CWebApplication->processRequest()
#2 /Applications/MAMP/htdocs/cloud-parking-api/index.php(23): CApplication->run()
#3 {main}
REQUEST_URI=/cloud-parking-api/api
---
2019/09/25 13:55:50 [error] [exception.CHttpException.404] exception 'CHttpException' with message 'Tidak bisa mengurai request "themes/default/res/igomad/igomad.js"' in /Applications/MAMP/htdocs/cloud-parking-api/yii-1.1.16/framework/web/CWebApplication.php:286
Stack trace:
#0 /Applications/MAMP/htdocs/cloud-parking-api/yii-1.1.16/framework/web/CWebApplication.php(141): CWebApplication->runController('themes/default/...')
#1 /Applications/MAMP/htdocs/cloud-parking-api/yii-1.1.16/framework/base/CApplication.php(184): CWebApplication->processRequest()
#2 /Applications/MAMP/htdocs/cloud-parking-api/index.php(23): CApplication->run()
#3 {main}
REQUEST_URI=/cloud-parking-api/themes/default/res/igomad/igomad.js
HTTP_REFERER=http://localhost:8888/cloud-parking-api/api
---
2019/09/25 13:55:50 [error] [exception.CHttpException.404] exception 'CHttpException' with message 'Tidak bisa mengurai request "themes/default/assets/css/admin.css"' in /Applications/MAMP/htdocs/cloud-parking-api/yii-1.1.16/framework/web/CWebApplication.php:286
Stack trace:
#0 /Applications/MAMP/htdocs/cloud-parking-api/yii-1.1.16/framework/web/CWebApplication.php(141): CWebApplication->runController('themes/default/...')
#1 /Applications/MAMP/htdocs/cloud-parking-api/yii-1.1.16/framework/base/CApplication.php(184): CWebApplication->processRequest()
#2 /Applications/MAMP/htdocs/cloud-parking-api/index.php(23): CApplication->run()
#3 {main}
REQUEST_URI=/cloud-parking-api/themes/default/assets/css/admin.css
HTTP_REFERER=http://localhost:8888/cloud-parking-api/api
---
2019/09/25 13:55:50 [error] [exception.CHttpException.404] exception 'CHttpException' with message 'Tidak bisa mengurai request "themes/default/ionicons-2.0.1/css/ionicons.min.css"' in /Applications/MAMP/htdocs/cloud-parking-api/yii-1.1.16/framework/web/CWebApplication.php:286
Stack trace:
#0 /Applications/MAMP/htdocs/cloud-parking-api/yii-1.1.16/framework/web/CWebApplication.php(141): CWebApplication->runController('themes/default/...')
#1 /Applications/MAMP/htdocs/cloud-parking-api/yii-1.1.16/framework/base/CApplication.php(184): CWebApplication->processRequest()
#2 /Applications/MAMP/htdocs/cloud-parking-api/index.php(23): CApplication->run()
#3 {main}
REQUEST_URI=/cloud-parking-api/themes/default/ionicons-2.0.1/css/ionicons.min.css
HTTP_REFERER=http://localhost:8888/cloud-parking-api/api
---
2019/09/25 13:55:50 [error] [exception.CHttpException.404] exception 'CHttpException' with message 'Tidak bisa mengurai request "themes/default/assets/js/jquery-ui.min.js"' in /Applications/MAMP/htdocs/cloud-parking-api/yii-1.1.16/framework/web/CWebApplication.php:286
Stack trace:
#0 /Applications/MAMP/htdocs/cloud-parking-api/yii-1.1.16/framework/web/CWebApplication.php(141): CWebApplication->runController('themes/default/...')
#1 /Applications/MAMP/htdocs/cloud-parking-api/yii-1.1.16/framework/base/CApplication.php(184): CWebApplication->processRequest()
#2 /Applications/MAMP/htdocs/cloud-parking-api/index.php(23): CApplication->run()
#3 {main}
REQUEST_URI=/cloud-parking-api/themes/default/assets/js/jquery-ui.min.js
HTTP_REFERER=http://localhost:8888/cloud-parking-api/api
---
2019/09/25 13:55:50 [error] [exception.CHttpException.404] exception 'CHttpException' with message 'Tidak bisa mengurai request "themes/default/font-awesome/css/font-awesome.min.css"' in /Applications/MAMP/htdocs/cloud-parking-api/yii-1.1.16/framework/web/CWebApplication.php:286
Stack trace:
#0 /Applications/MAMP/htdocs/cloud-parking-api/yii-1.1.16/framework/web/CWebApplication.php(141): CWebApplication->runController('themes/default/...')
#1 /Applications/MAMP/htdocs/cloud-parking-api/yii-1.1.16/framework/base/CApplication.php(184): CWebApplication->processRequest()
#2 /Applications/MAMP/htdocs/cloud-parking-api/index.php(23): CApplication->run()
#3 {main}
REQUEST_URI=/cloud-parking-api/themes/default/font-awesome/css/font-awesome.min.css
HTTP_REFERER=http://localhost:8888/cloud-parking-api/api
---
2019/09/25 13:55:51 [error] [exception.CHttpException.404] exception 'CHttpException' with message 'Tidak bisa mengurai request "themes/default/assets/js/jquery-ui.min.js"' in /Applications/MAMP/htdocs/cloud-parking-api/yii-1.1.16/framework/web/CWebApplication.php:286
Stack trace:
#0 /Applications/MAMP/htdocs/cloud-parking-api/yii-1.1.16/framework/web/CWebApplication.php(141): CWebApplication->runController('themes/default/...')
#1 /Applications/MAMP/htdocs/cloud-parking-api/yii-1.1.16/framework/base/CApplication.php(184): CWebApplication->processRequest()
#2 /Applications/MAMP/htdocs/cloud-parking-api/index.php(23): CApplication->run()
#3 {main}
REQUEST_URI=/cloud-parking-api/themes/default/assets/js/jquery-ui.min.js
HTTP_REFERER=http://localhost:8888/cloud-parking-api/api
---
2019/09/25 13:55:51 [error] [exception.CHttpException.404] exception 'CHttpException' with message 'Tidak bisa mengurai request "themes/default/res/igomad/igomad.js"' in /Applications/MAMP/htdocs/cloud-parking-api/yii-1.1.16/framework/web/CWebApplication.php:286
Stack trace:
#0 /Applications/MAMP/htdocs/cloud-parking-api/yii-1.1.16/framework/web/CWebApplication.php(141): CWebApplication->runController('themes/default/...')
#1 /Applications/MAMP/htdocs/cloud-parking-api/yii-1.1.16/framework/base/CApplication.php(184): CWebApplication->processRequest()
#2 /Applications/MAMP/htdocs/cloud-parking-api/index.php(23): CApplication->run()
#3 {main}
REQUEST_URI=/cloud-parking-api/themes/default/res/igomad/igomad.js
HTTP_REFERER=http://localhost:8888/cloud-parking-api/api
---
2019/09/25 13:55:54 [error] [exception.CHttpException.404] exception 'CHttpException' with message 'Tidak bisa mengurai request "api/parking"' in /Applications/MAMP/htdocs/cloud-parking-api/yii-1.1.16/framework/web/CWebApplication.php:286
Stack trace:
#0 /Applications/MAMP/htdocs/cloud-parking-api/yii-1.1.16/framework/web/CWebApplication.php(141): CWebApplication->runController('api/parking')
#1 /Applications/MAMP/htdocs/cloud-parking-api/yii-1.1.16/framework/base/CApplication.php(184): CWebApplication->processRequest()
#2 /Applications/MAMP/htdocs/cloud-parking-api/index.php(23): CApplication->run()
#3 {main}
REQUEST_URI=/cloud-parking-api/api/parking
---
2019/09/25 13:55:54 [error] [exception.CHttpException.404] exception 'CHttpException' with message 'Tidak bisa mengurai request "themes/default/assets/css/admin.css"' in /Applications/MAMP/htdocs/cloud-parking-api/yii-1.1.16/framework/web/CWebApplication.php:286
Stack trace:
#0 /Applications/MAMP/htdocs/cloud-parking-api/yii-1.1.16/framework/web/CWebApplication.php(141): CWebApplication->runController('themes/default/...')
#1 /Applications/MAMP/htdocs/cloud-parking-api/yii-1.1.16/framework/base/CApplication.php(184): CWebApplication->processRequest()
#2 /Applications/MAMP/htdocs/cloud-parking-api/index.php(23): CApplication->run()
#3 {main}
REQUEST_URI=/cloud-parking-api/themes/default/assets/css/admin.css
HTTP_REFERER=http://localhost:8888/cloud-parking-api/api/parking
---
2019/09/25 13:55:55 [error] [exception.CHttpException.404] exception 'CHttpException' with message 'Tidak bisa mengurai request "themes/default/assets/js/jquery-ui.min.js"' in /Applications/MAMP/htdocs/cloud-parking-api/yii-1.1.16/framework/web/CWebApplication.php:286
Stack trace:
#0 /Applications/MAMP/htdocs/cloud-parking-api/yii-1.1.16/framework/web/CWebApplication.php(141): CWebApplication->runController('themes/default/...')
#1 /Applications/MAMP/htdocs/cloud-parking-api/yii-1.1.16/framework/base/CApplication.php(184): CWebApplication->processRequest()
#2 /Applications/MAMP/htdocs/cloud-parking-api/index.php(23): CApplication->run()
#3 {main}
REQUEST_URI=/cloud-parking-api/themes/default/assets/js/jquery-ui.min.js
HTTP_REFERER=http://localhost:8888/cloud-parking-api/api/parking
---
2019/09/25 13:55:55 [error] [exception.CHttpException.404] exception 'CHttpException' with message 'Tidak bisa mengurai request "themes/default/font-awesome/css/font-awesome.min.css"' in /Applications/MAMP/htdocs/cloud-parking-api/yii-1.1.16/framework/web/CWebApplication.php:286
Stack trace:
#0 /Applications/MAMP/htdocs/cloud-parking-api/yii-1.1.16/framework/web/CWebApplication.php(141): CWebApplication->runController('themes/default/...')
#1 /Applications/MAMP/htdocs/cloud-parking-api/yii-1.1.16/framework/base/CApplication.php(184): CWebApplication->processRequest()
#2 /Applications/MAMP/htdocs/cloud-parking-api/index.php(23): CApplication->run()
#3 {main}
REQUEST_URI=/cloud-parking-api/themes/default/font-awesome/css/font-awesome.min.css
HTTP_REFERER=http://localhost:8888/cloud-parking-api/api/parking
---
2019/09/25 13:55:55 [error] [exception.CHttpException.404] exception 'CHttpException' with message 'Tidak bisa mengurai request "themes/default/ionicons-2.0.1/css/ionicons.min.css"' in /Applications/MAMP/htdocs/cloud-parking-api/yii-1.1.16/framework/web/CWebApplication.php:286
Stack trace:
#0 /Applications/MAMP/htdocs/cloud-parking-api/yii-1.1.16/framework/web/CWebApplication.php(141): CWebApplication->runController('themes/default/...')
#1 /Applications/MAMP/htdocs/cloud-parking-api/yii-1.1.16/framework/base/CApplication.php(184): CWebApplication->processRequest()
#2 /Applications/MAMP/htdocs/cloud-parking-api/index.php(23): CApplication->run()
#3 {main}
REQUEST_URI=/cloud-parking-api/themes/default/ionicons-2.0.1/css/ionicons.min.css
HTTP_REFERER=http://localhost:8888/cloud-parking-api/api/parking
---
2019/09/25 13:55:55 [error] [exception.CHttpException.404] exception 'CHttpException' with message 'Tidak bisa mengurai request "themes/default/res/igomad/igomad.js"' in /Applications/MAMP/htdocs/cloud-parking-api/yii-1.1.16/framework/web/CWebApplication.php:286
Stack trace:
#0 /Applications/MAMP/htdocs/cloud-parking-api/yii-1.1.16/framework/web/CWebApplication.php(141): CWebApplication->runController('themes/default/...')
#1 /Applications/MAMP/htdocs/cloud-parking-api/yii-1.1.16/framework/base/CApplication.php(184): CWebApplication->processRequest()
#2 /Applications/MAMP/htdocs/cloud-parking-api/index.php(23): CApplication->run()
#3 {main}
REQUEST_URI=/cloud-parking-api/themes/default/res/igomad/igomad.js
HTTP_REFERER=http://localhost:8888/cloud-parking-api/api/parking
---
2019/09/25 13:55:55 [error] [exception.CHttpException.404] exception 'CHttpException' with message 'Tidak bisa mengurai request "themes/default/assets/js/jquery-ui.min.js"' in /Applications/MAMP/htdocs/cloud-parking-api/yii-1.1.16/framework/web/CWebApplication.php:286
Stack trace:
#0 /Applications/MAMP/htdocs/cloud-parking-api/yii-1.1.16/framework/web/CWebApplication.php(141): CWebApplication->runController('themes/default/...')
#1 /Applications/MAMP/htdocs/cloud-parking-api/yii-1.1.16/framework/base/CApplication.php(184): CWebApplication->processRequest()
#2 /Applications/MAMP/htdocs/cloud-parking-api/index.php(23): CApplication->run()
#3 {main}
REQUEST_URI=/cloud-parking-api/themes/default/assets/js/jquery-ui.min.js
HTTP_REFERER=http://localhost:8888/cloud-parking-api/api/parking
---
2019/09/25 13:55:55 [error] [exception.CHttpException.404] exception 'CHttpException' with message 'Tidak bisa mengurai request "themes/default/res/igomad/igomad.js"' in /Applications/MAMP/htdocs/cloud-parking-api/yii-1.1.16/framework/web/CWebApplication.php:286
Stack trace:
#0 /Applications/MAMP/htdocs/cloud-parking-api/yii-1.1.16/framework/web/CWebApplication.php(141): CWebApplication->runController('themes/default/...')
#1 /Applications/MAMP/htdocs/cloud-parking-api/yii-1.1.16/framework/base/CApplication.php(184): CWebApplication->processRequest()
#2 /Applications/MAMP/htdocs/cloud-parking-api/index.php(23): CApplication->run()
#3 {main}
REQUEST_URI=/cloud-parking-api/themes/default/res/igomad/igomad.js
HTTP_REFERER=http://localhost:8888/cloud-parking-api/api/parking
---
2019/09/25 13:56:15 [error] [exception.CHttpException.404] exception 'CHttpException' with message 'Sistem tidak bisa menemukan action "index" seperti yang diminta.' in /Applications/MAMP/htdocs/cloud-parking-api/yii-1.1.16/framework/web/CController.php:483
Stack trace:
#0 /Applications/MAMP/htdocs/cloud-parking-api/yii-1.1.16/framework/web/CController.php(270): CController->missingAction('')
#1 /Applications/MAMP/htdocs/cloud-parking-api/yii-1.1.16/framework/web/CWebApplication.php(282): CController->run('')
#2 /Applications/MAMP/htdocs/cloud-parking-api/yii-1.1.16/framework/web/CWebApplication.php(141): CWebApplication->runController('api/parking')
#3 /Applications/MAMP/htdocs/cloud-parking-api/yii-1.1.16/framework/base/CApplication.php(184): CWebApplication->processRequest()
#4 /Applications/MAMP/htdocs/cloud-parking-api/index.php(23): CApplication->run()
#5 {main}
REQUEST_URI=/cloud-parking-api/api/parking
---
2019/09/25 13:56:15 [error] [exception.CHttpException.404] exception 'CHttpException' with message 'Tidak bisa mengurai request "themes/default/res/igomad/igomad.js"' in /Applications/MAMP/htdocs/cloud-parking-api/yii-1.1.16/framework/web/CWebApplication.php:286
Stack trace:
#0 /Applications/MAMP/htdocs/cloud-parking-api/yii-1.1.16/framework/web/CWebApplication.php(141): CWebApplication->runController('themes/default/...')
#1 /Applications/MAMP/htdocs/cloud-parking-api/yii-1.1.16/framework/base/CApplication.php(184): CWebApplication->processRequest()
#2 /Applications/MAMP/htdocs/cloud-parking-api/index.php(23): CApplication->run()
#3 {main}
REQUEST_URI=/cloud-parking-api/themes/default/res/igomad/igomad.js
HTTP_REFERER=http://localhost:8888/cloud-parking-api/api/parking
---
2019/09/25 13:56:15 [error] [exception.CHttpException.404] exception 'CHttpException' with message 'Tidak bisa mengurai request "themes/default/assets/js/jquery-ui.min.js"' in /Applications/MAMP/htdocs/cloud-parking-api/yii-1.1.16/framework/web/CWebApplication.php:286
Stack trace:
#0 /Applications/MAMP/htdocs/cloud-parking-api/yii-1.1.16/framework/web/CWebApplication.php(141): CWebApplication->runController('themes/default/...')
#1 /Applications/MAMP/htdocs/cloud-parking-api/yii-1.1.16/framework/base/CApplication.php(184): CWebApplication->processRequest()
#2 /Applications/MAMP/htdocs/cloud-parking-api/index.php(23): CApplication->run()
#3 {main}
REQUEST_URI=/cloud-parking-api/themes/default/assets/js/jquery-ui.min.js
HTTP_REFERER=http://localhost:8888/cloud-parking-api/api/parking
---
2019/09/25 13:56:15 [error] [exception.CHttpException.404] exception 'CHttpException' with message 'Tidak bisa mengurai request "themes/default/ionicons-2.0.1/css/ionicons.min.css"' in /Applications/MAMP/htdocs/cloud-parking-api/yii-1.1.16/framework/web/CWebApplication.php:286
Stack trace:
#0 /Applications/MAMP/htdocs/cloud-parking-api/yii-1.1.16/framework/web/CWebApplication.php(141): CWebApplication->runController('themes/default/...')
#1 /Applications/MAMP/htdocs/cloud-parking-api/yii-1.1.16/framework/base/CApplication.php(184): CWebApplication->processRequest()
#2 /Applications/MAMP/htdocs/cloud-parking-api/index.php(23): CApplication->run()
#3 {main}
REQUEST_URI=/cloud-parking-api/themes/default/ionicons-2.0.1/css/ionicons.min.css
HTTP_REFERER=http://localhost:8888/cloud-parking-api/api/parking
---
2019/09/25 13:56:15 [error] [exception.CHttpException.404] exception 'CHttpException' with message 'Tidak bisa mengurai request "themes/default/font-awesome/css/font-awesome.min.css"' in /Applications/MAMP/htdocs/cloud-parking-api/yii-1.1.16/framework/web/CWebApplication.php:286
Stack trace:
#0 /Applications/MAMP/htdocs/cloud-parking-api/yii-1.1.16/framework/web/CWebApplication.php(141): CWebApplication->runController('themes/default/...')
#1 /Applications/MAMP/htdocs/cloud-parking-api/yii-1.1.16/framework/base/CApplication.php(184): CWebApplication->processRequest()
#2 /Applications/MAMP/htdocs/cloud-parking-api/index.php(23): CApplication->run()
#3 {main}
REQUEST_URI=/cloud-parking-api/themes/default/font-awesome/css/font-awesome.min.css
HTTP_REFERER=http://localhost:8888/cloud-parking-api/api/parking
---
2019/09/25 13:56:15 [error] [exception.CHttpException.404] exception 'CHttpException' with message 'Tidak bisa mengurai request "themes/default/assets/css/admin.css"' in /Applications/MAMP/htdocs/cloud-parking-api/yii-1.1.16/framework/web/CWebApplication.php:286
Stack trace:
#0 /Applications/MAMP/htdocs/cloud-parking-api/yii-1.1.16/framework/web/CWebApplication.php(141): CWebApplication->runController('themes/default/...')
#1 /Applications/MAMP/htdocs/cloud-parking-api/yii-1.1.16/framework/base/CApplication.php(184): CWebApplication->processRequest()
#2 /Applications/MAMP/htdocs/cloud-parking-api/index.php(23): CApplication->run()
#3 {main}
REQUEST_URI=/cloud-parking-api/themes/default/assets/css/admin.css
HTTP_REFERER=http://localhost:8888/cloud-parking-api/api/parking
---
2019/09/25 13:56:15 [error] [exception.CHttpException.404] exception 'CHttpException' with message 'Tidak bisa mengurai request "themes/default/assets/js/jquery-ui.min.js"' in /Applications/MAMP/htdocs/cloud-parking-api/yii-1.1.16/framework/web/CWebApplication.php:286
Stack trace:
#0 /Applications/MAMP/htdocs/cloud-parking-api/yii-1.1.16/framework/web/CWebApplication.php(141): CWebApplication->runController('themes/default/...')
#1 /Applications/MAMP/htdocs/cloud-parking-api/yii-1.1.16/framework/base/CApplication.php(184): CWebApplication->processRequest()
#2 /Applications/MAMP/htdocs/cloud-parking-api/index.php(23): CApplication->run()
#3 {main}
REQUEST_URI=/cloud-parking-api/themes/default/assets/js/jquery-ui.min.js
HTTP_REFERER=http://localhost:8888/cloud-parking-api/api/parking
---
2019/09/25 13:56:15 [error] [exception.CHttpException.404] exception 'CHttpException' with message 'Tidak bisa mengurai request "themes/default/res/igomad/igomad.js"' in /Applications/MAMP/htdocs/cloud-parking-api/yii-1.1.16/framework/web/CWebApplication.php:286
Stack trace:
#0 /Applications/MAMP/htdocs/cloud-parking-api/yii-1.1.16/framework/web/CWebApplication.php(141): CWebApplication->runController('themes/default/...')
#1 /Applications/MAMP/htdocs/cloud-parking-api/yii-1.1.16/framework/base/CApplication.php(184): CWebApplication->processRequest()
#2 /Applications/MAMP/htdocs/cloud-parking-api/index.php(23): CApplication->run()
#3 {main}
REQUEST_URI=/cloud-parking-api/themes/default/res/igomad/igomad.js
HTTP_REFERER=http://localhost:8888/cloud-parking-api/api/parking
---
2019/09/25 13:56:22 [error] [exception.CDbException] exception 'CDbException' with message 'CDbConnection failed to open the DB connection: SQLSTATE[HY000] [1045] Access denied for user 'root'@'localhost' (using password: YES)' in /Applications/MAMP/htdocs/cloud-parking-api/yii-1.1.16/framework/db/CDbConnection.php:399
Stack trace:
#0 /Applications/MAMP/htdocs/cloud-parking-api/yii-1.1.16/framework/db/CDbConnection.php(347): CDbConnection->open()
#1 /Applications/MAMP/htdocs/cloud-parking-api/yii-1.1.16/framework/db/CDbConnection.php(325): CDbConnection->setActive(true)
#2 /Applications/MAMP/htdocs/cloud-parking-api/yii-1.1.16/framework/base/CModule.php(394): CDbConnection->init()
#3 /Applications/MAMP/htdocs/cloud-parking-api/yii-1.1.16/framework/base/CModule.php(103): CModule->getComponent('db')
#4 /Applications/MAMP/htdocs/cloud-parking-api/protected/modules/api/controllers/ParkingController.php(34): CModule->__get('db')
#5 /Applications/MAMP/htdocs/cloud-parking-api/yii-1.1.16/framework/web/actions/CInlineAction.php(49): ParkingController->actionGetTicket()
#6 /Applications/MAMP/htdocs/cloud-parking-api/yii-1.1.16/framework/web/CController.php(308): CInlineAction->runWithParams(Array)
#7 /Applications/MAMP/htdocs/cloud-parking-api/yii-1.1.16/framework/web/CController.php(286): CController->runAction(Object(CInlineAction))
#8 /Applications/MAMP/htdocs/cloud-parking-api/yii-1.1.16/framework/web/CController.php(265): CController->runActionWithFilters(Object(CInlineAction), Array)
#9 /Applications/MAMP/htdocs/cloud-parking-api/yii-1.1.16/framework/web/CWebApplication.php(282): CController->run('getTicket')
#10 /Applications/MAMP/htdocs/cloud-parking-api/yii-1.1.16/framework/web/CWebApplication.php(141): CWebApplication->runController('api/parking/get...')
#11 /Applications/MAMP/htdocs/cloud-parking-api/yii-1.1.16/framework/base/CApplication.php(184): CWebApplication->processRequest()
#12 /Applications/MAMP/htdocs/cloud-parking-api/index.php(23): CApplication->run()
#13 {main}
REQUEST_URI=/cloud-parking-api/api/parking/getTicket
---
2019/09/25 13:56:31 [error] [exception.CHttpException.404] exception 'CHttpException' with message 'Tidak bisa mengurai request "api"' in /Applications/MAMP/htdocs/cloud-parking-api/yii-1.1.16/framework/web/CWebApplication.php:286
Stack trace:
#0 /Applications/MAMP/htdocs/cloud-parking-api/yii-1.1.16/framework/web/CWebApplication.php(141): CWebApplication->runController('api')
#1 /Applications/MAMP/htdocs/cloud-parking-api/yii-1.1.16/framework/base/CApplication.php(184): CWebApplication->processRequest()
#2 /Applications/MAMP/htdocs/cloud-parking-api/index.php(23): CApplication->run()
#3 {main}
REQUEST_URI=/cloud-parking-api/api
---
2019/09/25 13:56:31 [error] [exception.CHttpException.404] exception 'CHttpException' with message 'Tidak bisa mengurai request "themes/default/font-awesome/css/font-awesome.min.css"' in /Applications/MAMP/htdocs/cloud-parking-api/yii-1.1.16/framework/web/CWebApplication.php:286
Stack trace:
#0 /Applications/MAMP/htdocs/cloud-parking-api/yii-1.1.16/framework/web/CWebApplication.php(141): CWebApplication->runController('themes/default/...')
#1 /Applications/MAMP/htdocs/cloud-parking-api/yii-1.1.16/framework/base/CApplication.php(184): CWebApplication->processRequest()
#2 /Applications/MAMP/htdocs/cloud-parking-api/index.php(23): CApplication->run()
#3 {main}
REQUEST_URI=/cloud-parking-api/themes/default/font-awesome/css/font-awesome.min.css
HTTP_REFERER=http://localhost:8888/cloud-parking-api/api
---
2019/09/25 13:56:31 [error] [exception.CHttpException.404] exception 'CHttpException' with message 'Tidak bisa mengurai request "themes/default/assets/css/admin.css"' in /Applications/MAMP/htdocs/cloud-parking-api/yii-1.1.16/framework/web/CWebApplication.php:286
Stack trace:
#0 /Applications/MAMP/htdocs/cloud-parking-api/yii-1.1.16/framework/web/CWebApplication.php(141): CWebApplication->runController('themes/default/...')
#1 /Applications/MAMP/htdocs/cloud-parking-api/yii-1.1.16/framework/base/CApplication.php(184): CWebApplication->processRequest()
#2 /Applications/MAMP/htdocs/cloud-parking-api/index.php(23): CApplication->run()
#3 {main}
REQUEST_URI=/cloud-parking-api/themes/default/assets/css/admin.css
HTTP_REFERER=http://localhost:8888/cloud-parking-api/api
---
2019/09/25 13:56:31 [error] [exception.CHttpException.404] exception 'CHttpException' with message 'Tidak bisa mengurai request "themes/default/ionicons-2.0.1/css/ionicons.min.css"' in /Applications/MAMP/htdocs/cloud-parking-api/yii-1.1.16/framework/web/CWebApplication.php:286
Stack trace:
#0 /Applications/MAMP/htdocs/cloud-parking-api/yii-1.1.16/framework/web/CWebApplication.php(141): CWebApplication->runController('themes/default/...')
#1 /Applications/MAMP/htdocs/cloud-parking-api/yii-1.1.16/framework/base/CApplication.php(184): CWebApplication->processRequest()
#2 /Applications/MAMP/htdocs/cloud-parking-api/index.php(23): CApplication->run()
#3 {main}
REQUEST_URI=/cloud-parking-api/themes/default/ionicons-2.0.1/css/ionicons.min.css
HTTP_REFERER=http://localhost:8888/cloud-parking-api/api
---
2019/09/25 13:56:32 [error] [exception.CHttpException.404] exception 'CHttpException' with message 'Tidak bisa mengurai request "themes/default/assets/js/jquery-ui.min.js"' in /Applications/MAMP/htdocs/cloud-parking-api/yii-1.1.16/framework/web/CWebApplication.php:286
Stack trace:
#0 /Applications/MAMP/htdocs/cloud-parking-api/yii-1.1.16/framework/web/CWebApplication.php(141): CWebApplication->runController('themes/default/...')
#1 /Applications/MAMP/htdocs/cloud-parking-api/yii-1.1.16/framework/base/CApplication.php(184): CWebApplication->processRequest()
#2 /Applications/MAMP/htdocs/cloud-parking-api/index.php(23): CApplication->run()
#3 {main}
REQUEST_URI=/cloud-parking-api/themes/default/assets/js/jquery-ui.min.js
HTTP_REFERER=http://localhost:8888/cloud-parking-api/api
---
2019/09/25 13:56:32 [error] [exception.CHttpException.404] exception 'CHttpException' with message 'Tidak bisa mengurai request "themes/default/res/igomad/igomad.js"' in /Applications/MAMP/htdocs/cloud-parking-api/yii-1.1.16/framework/web/CWebApplication.php:286
Stack trace:
#0 /Applications/MAMP/htdocs/cloud-parking-api/yii-1.1.16/framework/web/CWebApplication.php(141): CWebApplication->runController('themes/default/...')
#1 /Applications/MAMP/htdocs/cloud-parking-api/yii-1.1.16/framework/base/CApplication.php(184): CWebApplication->processRequest()
#2 /Applications/MAMP/htdocs/cloud-parking-api/index.php(23): CApplication->run()
#3 {main}
REQUEST_URI=/cloud-parking-api/themes/default/res/igomad/igomad.js
HTTP_REFERER=http://localhost:8888/cloud-parking-api/api
---
2019/09/25 13:56:34 [error] [exception.CHttpException.404] exception 'CHttpException' with message 'Tidak bisa mengurai request "api"' in /Applications/MAMP/htdocs/cloud-parking-api/yii-1.1.16/framework/web/CWebApplication.php:286
Stack trace:
#0 /Applications/MAMP/htdocs/cloud-parking-api/yii-1.1.16/framework/web/CWebApplication.php(141): CWebApplication->runController('')
#1 /Applications/MAMP/htdocs/cloud-parking-api/yii-1.1.16/framework/base/CApplication.php(184): CWebApplication->processRequest()
#2 /Applications/MAMP/htdocs/cloud-parking-api/index.php(23): CApplication->run()
#3 {main}
REQUEST_URI=/cloud-parking-api/
---
2019/09/25 13:56:34 [error] [exception.CHttpException.404] exception 'CHttpException' with message 'Tidak bisa mengurai request "themes/default/font-awesome/css/font-awesome.min.css"' in /Applications/MAMP/htdocs/cloud-parking-api/yii-1.1.16/framework/web/CWebApplication.php:286
Stack trace:
#0 /Applications/MAMP/htdocs/cloud-parking-api/yii-1.1.16/framework/web/CWebApplication.php(141): CWebApplication->runController('themes/default/...')
#1 /Applications/MAMP/htdocs/cloud-parking-api/yii-1.1.16/framework/base/CApplication.php(184): CWebApplication->processRequest()
#2 /Applications/MAMP/htdocs/cloud-parking-api/index.php(23): CApplication->run()
#3 {main}
REQUEST_URI=/cloud-parking-api/themes/default/font-awesome/css/font-awesome.min.css
HTTP_REFERER=http://localhost:8888/cloud-parking-api/
---
2019/09/25 13:56:34 [error] [exception.CHttpException.404] exception 'CHttpException' with message 'Tidak bisa mengurai request "themes/default/ionicons-2.0.1/css/ionicons.min.css"' in /Applications/MAMP/htdocs/cloud-parking-api/yii-1.1.16/framework/web/CWebApplication.php:286
Stack trace:
#0 /Applications/MAMP/htdocs/cloud-parking-api/yii-1.1.16/framework/web/CWebApplication.php(141): CWebApplication->runController('themes/default/...')
#1 /Applications/MAMP/htdocs/cloud-parking-api/yii-1.1.16/framework/base/CApplication.php(184): CWebApplication->processRequest()
#2 /Applications/MAMP/htdocs/cloud-parking-api/index.php(23): CApplication->run()
#3 {main}
REQUEST_URI=/cloud-parking-api/themes/default/ionicons-2.0.1/css/ionicons.min.css
HTTP_REFERER=http://localhost:8888/cloud-parking-api/
---
2019/09/25 13:56:34 [error] [exception.CHttpException.404] exception 'CHttpException' with message 'Tidak bisa mengurai request "themes/default/assets/js/jquery-ui.min.js"' in /Applications/MAMP/htdocs/cloud-parking-api/yii-1.1.16/framework/web/CWebApplication.php:286
Stack trace:
#0 /Applications/MAMP/htdocs/cloud-parking-api/yii-1.1.16/framework/web/CWebApplication.php(141): CWebApplication->runController('themes/default/...')
#1 /Applications/MAMP/htdocs/cloud-parking-api/yii-1.1.16/framework/base/CApplication.php(184): CWebApplication->processRequest()
#2 /Applications/MAMP/htdocs/cloud-parking-api/index.php(23): CApplication->run()
#3 {main}
REQUEST_URI=/cloud-parking-api/themes/default/assets/js/jquery-ui.min.js
HTTP_REFERER=http://localhost:8888/cloud-parking-api/
---
2019/09/25 13:56:34 [error] [exception.CHttpException.404] exception 'CHttpException' with message 'Tidak bisa mengurai request "themes/default/res/igomad/igomad.js"' in /Applications/MAMP/htdocs/cloud-parking-api/yii-1.1.16/framework/web/CWebApplication.php:286
Stack trace:
#0 /Applications/MAMP/htdocs/cloud-parking-api/yii-1.1.16/framework/web/CWebApplication.php(141): CWebApplication->runController('themes/default/...')
#1 /Applications/MAMP/htdocs/cloud-parking-api/yii-1.1.16/framework/base/CApplication.php(184): CWebApplication->processRequest()
#2 /Applications/MAMP/htdocs/cloud-parking-api/index.php(23): CApplication->run()
#3 {main}
REQUEST_URI=/cloud-parking-api/themes/default/res/igomad/igomad.js
HTTP_REFERER=http://localhost:8888/cloud-parking-api/
---
2019/09/25 13:56:34 [error] [exception.CHttpException.404] exception 'CHttpException' with message 'Tidak bisa mengurai request "themes/default/assets/css/admin.css"' in /Applications/MAMP/htdocs/cloud-parking-api/yii-1.1.16/framework/web/CWebApplication.php:286
Stack trace:
#0 /Applications/MAMP/htdocs/cloud-parking-api/yii-1.1.16/framework/web/CWebApplication.php(141): CWebApplication->runController('themes/default/...')
#1 /Applications/MAMP/htdocs/cloud-parking-api/yii-1.1.16/framework/base/CApplication.php(184): CWebApplication->processRequest()
#2 /Applications/MAMP/htdocs/cloud-parking-api/index.php(23): CApplication->run()
#3 {main}
REQUEST_URI=/cloud-parking-api/themes/default/assets/css/admin.css
HTTP_REFERER=http://localhost:8888/cloud-parking-api/
---
2019/09/25 13:56:34 [error] [exception.CHttpException.404] exception 'CHttpException' with message 'Tidak bisa mengurai request "themes/default/assets/js/jquery-ui.min.js"' in /Applications/MAMP/htdocs/cloud-parking-api/yii-1.1.16/framework/web/CWebApplication.php:286
Stack trace:
#0 /Applications/MAMP/htdocs/cloud-parking-api/yii-1.1.16/framework/web/CWebApplication.php(141): CWebApplication->runController('themes/default/...')
#1 /Applications/MAMP/htdocs/cloud-parking-api/yii-1.1.16/framework/base/CApplication.php(184): CWebApplication->processRequest()
#2 /Applications/MAMP/htdocs/cloud-parking-api/index.php(23): CApplication->run()
#3 {main}
REQUEST_URI=/cloud-parking-api/themes/default/assets/js/jquery-ui.min.js
HTTP_REFERER=http://localhost:8888/cloud-parking-api/
---
2019/09/25 13:56:34 [error] [exception.CHttpException.404] exception 'CHttpException' with message 'Tidak bisa mengurai request "themes/default/res/igomad/igomad.js"' in /Applications/MAMP/htdocs/cloud-parking-api/yii-1.1.16/framework/web/CWebApplication.php:286
Stack trace:
#0 /Applications/MAMP/htdocs/cloud-parking-api/yii-1.1.16/framework/web/CWebApplication.php(141): CWebApplication->runController('themes/default/...')
#1 /Applications/MAMP/htdocs/cloud-parking-api/yii-1.1.16/framework/base/CApplication.php(184): CWebApplication->processRequest()
#2 /Applications/MAMP/htdocs/cloud-parking-api/index.php(23): CApplication->run()
#3 {main}
REQUEST_URI=/cloud-parking-api/themes/default/res/igomad/igomad.js
HTTP_REFERER=http://localhost:8888/cloud-parking-api/
---
2019/09/25 13:57:40 [error] [exception.CHttpException.404] exception 'CHttpException' with message 'Tidak bisa mengurai request "api"' in /Applications/MAMP/htdocs/cloud-parking-api/yii-1.1.16/framework/web/CWebApplication.php:286
Stack trace:
#0 /Applications/MAMP/htdocs/cloud-parking-api/yii-1.1.16/framework/web/CWebApplication.php(141): CWebApplication->runController('')
#1 /Applications/MAMP/htdocs/cloud-parking-api/yii-1.1.16/framework/base/CApplication.php(184): CWebApplication->processRequest()
#2 /Applications/MAMP/htdocs/cloud-parking-api/index.php(23): CApplication->run()
#3 {main}
REQUEST_URI=/cloud-parking-api/
---
2019/09/25 13:57:40 [error] [exception.CHttpException.404] exception 'CHttpException' with message 'Tidak bisa mengurai request "themes/default/res/igomad/igomad.js"' in /Applications/MAMP/htdocs/cloud-parking-api/yii-1.1.16/framework/web/CWebApplication.php:286
Stack trace:
#0 /Applications/MAMP/htdocs/cloud-parking-api/yii-1.1.16/framework/web/CWebApplication.php(141): CWebApplication->runController('themes/default/...')
#1 /Applications/MAMP/htdocs/cloud-parking-api/yii-1.1.16/framework/base/CApplication.php(184): CWebApplication->processRequest()
#2 /Applications/MAMP/htdocs/cloud-parking-api/index.php(23): CApplication->run()
#3 {main}
REQUEST_URI=/cloud-parking-api/themes/default/res/igomad/igomad.js
HTTP_REFERER=http://localhost:8888/cloud-parking-api/
---
2019/09/25 13:57:40 [error] [exception.CHttpException.404] exception 'CHttpException' with message 'Tidak bisa mengurai request "themes/default/font-awesome/css/font-awesome.min.css"' in /Applications/MAMP/htdocs/cloud-parking-api/yii-1.1.16/framework/web/CWebApplication.php:286
Stack trace:
#0 /Applications/MAMP/htdocs/cloud-parking-api/yii-1.1.16/framework/web/CWebApplication.php(141): CWebApplication->runController('themes/default/...')
#1 /Applications/MAMP/htdocs/cloud-parking-api/yii-1.1.16/framework/base/CApplication.php(184): CWebApplication->processRequest()
#2 /Applications/MAMP/htdocs/cloud-parking-api/index.php(23): CApplication->run()
#3 {main}
REQUEST_URI=/cloud-parking-api/themes/default/font-awesome/css/font-awesome.min.css
HTTP_REFERER=http://localhost:8888/cloud-parking-api/
---
2019/09/25 13:57:40 [error] [exception.CHttpException.404] exception 'CHttpException' with message 'Tidak bisa mengurai request "themes/default/ionicons-2.0.1/css/ionicons.min.css"' in /Applications/MAMP/htdocs/cloud-parking-api/yii-1.1.16/framework/web/CWebApplication.php:286
Stack trace:
#0 /Applications/MAMP/htdocs/cloud-parking-api/yii-1.1.16/framework/web/CWebApplication.php(141): CWebApplication->runController('themes/default/...')
#1 /Applications/MAMP/htdocs/cloud-parking-api/yii-1.1.16/framework/base/CApplication.php(184): CWebApplication->processRequest()
#2 /Applications/MAMP/htdocs/cloud-parking-api/index.php(23): CApplication->run()
#3 {main}
REQUEST_URI=/cloud-parking-api/themes/default/ionicons-2.0.1/css/ionicons.min.css
HTTP_REFERER=http://localhost:8888/cloud-parking-api/
---
2019/09/25 13:57:40 [error] [exception.CHttpException.404] exception 'CHttpException' with message 'Tidak bisa mengurai request "themes/default/assets/css/admin.css"' in /Applications/MAMP/htdocs/cloud-parking-api/yii-1.1.16/framework/web/CWebApplication.php:286
Stack trace:
#0 /Applications/MAMP/htdocs/cloud-parking-api/yii-1.1.16/framework/web/CWebApplication.php(141): CWebApplication->runController('themes/default/...')
#1 /Applications/MAMP/htdocs/cloud-parking-api/yii-1.1.16/framework/base/CApplication.php(184): CWebApplication->processRequest()
#2 /Applications/MAMP/htdocs/cloud-parking-api/index.php(23): CApplication->run()
#3 {main}
REQUEST_URI=/cloud-parking-api/themes/default/assets/css/admin.css
HTTP_REFERER=http://localhost:8888/cloud-parking-api/
---
2019/09/25 13:57:40 [error] [exception.CHttpException.404] exception 'CHttpException' with message 'Tidak bisa mengurai request "themes/default/assets/js/jquery-ui.min.js"' in /Applications/MAMP/htdocs/cloud-parking-api/yii-1.1.16/framework/web/CWebApplication.php:286
Stack trace:
#0 /Applications/MAMP/htdocs/cloud-parking-api/yii-1.1.16/framework/web/CWebApplication.php(141): CWebApplication->runController('themes/default/...')
#1 /Applications/MAMP/htdocs/cloud-parking-api/yii-1.1.16/framework/base/CApplication.php(184): CWebApplication->processRequest()
#2 /Applications/MAMP/htdocs/cloud-parking-api/index.php(23): CApplication->run()
#3 {main}
REQUEST_URI=/cloud-parking-api/themes/default/assets/js/jquery-ui.min.js
HTTP_REFERER=http://localhost:8888/cloud-parking-api/
---
2019/09/25 13:57:41 [error] [exception.CHttpException.404] exception 'CHttpException' with message 'Tidak bisa mengurai request "themes/default/res/igomad/igomad.js"' in /Applications/MAMP/htdocs/cloud-parking-api/yii-1.1.16/framework/web/CWebApplication.php:286
Stack trace:
#0 /Applications/MAMP/htdocs/cloud-parking-api/yii-1.1.16/framework/web/CWebApplication.php(141): CWebApplication->runController('themes/default/...')
#1 /Applications/MAMP/htdocs/cloud-parking-api/yii-1.1.16/framework/base/CApplication.php(184): CWebApplication->processRequest()
#2 /Applications/MAMP/htdocs/cloud-parking-api/index.php(23): CApplication->run()
#3 {main}
REQUEST_URI=/cloud-parking-api/themes/default/res/igomad/igomad.js
HTTP_REFERER=http://localhost:8888/cloud-parking-api/
---
2019/09/25 13:58:24 [error] [exception.CDbException] exception 'CDbException' with message 'CDbConnection failed to open the DB connection: SQLSTATE[HY000] [1045] Access denied for user 'root'@'localhost' (using password: YES)' in /Applications/MAMP/htdocs/cloud-parking-api/yii-1.1.16/framework/db/CDbConnection.php:399
Stack trace:
#0 /Applications/MAMP/htdocs/cloud-parking-api/yii-1.1.16/framework/db/CDbConnection.php(347): CDbConnection->open()
#1 /Applications/MAMP/htdocs/cloud-parking-api/yii-1.1.16/framework/db/CDbConnection.php(325): CDbConnection->setActive(true)
#2 /Applications/MAMP/htdocs/cloud-parking-api/yii-1.1.16/framework/base/CModule.php(394): CDbConnection->init()
#3 /Applications/MAMP/htdocs/cloud-parking-api/yii-1.1.16/framework/base/CModule.php(103): CModule->getComponent('db')
#4 /Applications/MAMP/htdocs/cloud-parking-api/protected/modules/webapplication/controllers/OvoController.php(32): CModule->__get('db')
#5 /Applications/MAMP/htdocs/cloud-parking-api/yii-1.1.16/framework/web/actions/CInlineAction.php(49): OvoController->actionInquiry()
#6 /Applications/MAMP/htdocs/cloud-parking-api/yii-1.1.16/framework/web/CController.php(308): CInlineAction->runWithParams(Array)
#7 /Applications/MAMP/htdocs/cloud-parking-api/yii-1.1.16/framework/web/CController.php(286): CController->runAction(Object(CInlineAction))
#8 /Applications/MAMP/htdocs/cloud-parking-api/yii-1.1.16/framework/web/CController.php(265): CController->runActionWithFilters(Object(CInlineAction), Array)
#9 /Applications/MAMP/htdocs/cloud-parking-api/yii-1.1.16/framework/web/CWebApplication.php(282): CController->run('inquiry')
#10 /Applications/MAMP/htdocs/cloud-parking-api/yii-1.1.16/framework/web/CWebApplication.php(141): CWebApplication->runController('webapplication/...')
#11 /Applications/MAMP/htdocs/cloud-parking-api/yii-1.1.16/framework/base/CApplication.php(184): CWebApplication->processRequest()
#12 /Applications/MAMP/htdocs/cloud-parking-api/index.php(23): CApplication->run()
#13 {main}
REQUEST_URI=/cloud-parking-api/webapplication/ovo/inquiry
---
2019/09/25 13:58:37 [error] [exception.CDbException] exception 'CDbException' with message 'CDbConnection failed to open the DB connection: SQLSTATE[HY000] [1045] Access denied for user 'root'@'localhost' (using password: NO)' in /Applications/MAMP/htdocs/cloud-parking-api/yii-1.1.16/framework/db/CDbConnection.php:399
Stack trace:
#0 /Applications/MAMP/htdocs/cloud-parking-api/yii-1.1.16/framework/db/CDbConnection.php(347): CDbConnection->open()
#1 /Applications/MAMP/htdocs/cloud-parking-api/yii-1.1.16/framework/db/CDbConnection.php(325): CDbConnection->setActive(true)
#2 /Applications/MAMP/htdocs/cloud-parking-api/yii-1.1.16/framework/base/CModule.php(394): CDbConnection->init()
#3 /Applications/MAMP/htdocs/cloud-parking-api/yii-1.1.16/framework/base/CModule.php(103): CModule->getComponent('db')
#4 /Applications/MAMP/htdocs/cloud-parking-api/protected/modules/webapplication/controllers/OvoController.php(32): CModule->__get('db')
#5 /Applications/MAMP/htdocs/cloud-parking-api/yii-1.1.16/framework/web/actions/CInlineAction.php(49): OvoController->actionInquiry()
#6 /Applications/MAMP/htdocs/cloud-parking-api/yii-1.1.16/framework/web/CController.php(308): CInlineAction->runWithParams(Array)
#7 /Applications/MAMP/htdocs/cloud-parking-api/yii-1.1.16/framework/web/CController.php(286): CController->runAction(Object(CInlineAction))
#8 /Applications/MAMP/htdocs/cloud-parking-api/yii-1.1.16/framework/web/CController.php(265): CController->runActionWithFilters(Object(CInlineAction), Array)
#9 /Applications/MAMP/htdocs/cloud-parking-api/yii-1.1.16/framework/web/CWebApplication.php(282): CController->run('inquiry')
#10 /Applications/MAMP/htdocs/cloud-parking-api/yii-1.1.16/framework/web/CWebApplication.php(141): CWebApplication->runController('webapplication/...')
#11 /Applications/MAMP/htdocs/cloud-parking-api/yii-1.1.16/framework/base/CApplication.php(184): CWebApplication->processRequest()
#12 /Applications/MAMP/htdocs/cloud-parking-api/index.php(23): CApplication->run()
#13 {main}
REQUEST_URI=/cloud-parking-api/webapplication/ovo/inquiry
---
2019/09/25 13:58:38 [error] [exception.CDbException] exception 'CDbException' with message 'CDbConnection failed to open the DB connection: SQLSTATE[HY000] [1045] Access denied for user 'root'@'localhost' (using password: NO)' in /Applications/MAMP/htdocs/cloud-parking-api/yii-1.1.16/framework/db/CDbConnection.php:399
Stack trace:
#0 /Applications/MAMP/htdocs/cloud-parking-api/yii-1.1.16/framework/db/CDbConnection.php(347): CDbConnection->open()
#1 /Applications/MAMP/htdocs/cloud-parking-api/yii-1.1.16/framework/db/CDbConnection.php(325): CDbConnection->setActive(true)
#2 /Applications/MAMP/htdocs/cloud-parking-api/yii-1.1.16/framework/base/CModule.php(394): CDbConnection->init()
#3 /Applications/MAMP/htdocs/cloud-parking-api/yii-1.1.16/framework/base/CModule.php(103): CModule->getComponent('db')
#4 /Applications/MAMP/htdocs/cloud-parking-api/protected/modules/webapplication/controllers/OvoController.php(32): CModule->__get('db')
#5 /Applications/MAMP/htdocs/cloud-parking-api/yii-1.1.16/framework/web/actions/CInlineAction.php(49): OvoController->actionInquiry()
#6 /Applications/MAMP/htdocs/cloud-parking-api/yii-1.1.16/framework/web/CController.php(308): CInlineAction->runWithParams(Array)
#7 /Applications/MAMP/htdocs/cloud-parking-api/yii-1.1.16/framework/web/CController.php(286): CController->runAction(Object(CInlineAction))
#8 /Applications/MAMP/htdocs/cloud-parking-api/yii-1.1.16/framework/web/CController.php(265): CController->runActionWithFilters(Object(CInlineAction), Array)
#9 /Applications/MAMP/htdocs/cloud-parking-api/yii-1.1.16/framework/web/CWebApplication.php(282): CController->run('inquiry')
#10 /Applications/MAMP/htdocs/cloud-parking-api/yii-1.1.16/framework/web/CWebApplication.php(141): CWebApplication->runController('webapplication/...')
#11 /Applications/MAMP/htdocs/cloud-parking-api/yii-1.1.16/framework/base/CApplication.php(184): CWebApplication->processRequest()
#12 /Applications/MAMP/htdocs/cloud-parking-api/index.php(23): CApplication->run()
#13 {main}
REQUEST_URI=/cloud-parking-api/webapplication/ovo/inquiry
---
2019/09/25 13:59:16 [error] [exception.CHttpException.404] exception 'CHttpException' with message 'Sistem tidak bisa menemukan action "index" seperti yang diminta.' in /Applications/MAMP/htdocs/cloud-parking-api/yii-1.1.16/framework/web/CController.php:483
Stack trace:
#0 /Applications/MAMP/htdocs/cloud-parking-api/yii-1.1.16/framework/web/CController.php(270): CController->missingAction('')
#1 /Applications/MAMP/htdocs/cloud-parking-api/yii-1.1.16/framework/web/CWebApplication.php(282): CController->run('')
#2 /Applications/MAMP/htdocs/cloud-parking-api/yii-1.1.16/framework/web/CWebApplication.php(141): CWebApplication->runController('edc')
#3 /Applications/MAMP/htdocs/cloud-parking-api/yii-1.1.16/framework/base/CApplication.php(184): CWebApplication->processRequest()
#4 /Applications/MAMP/htdocs/cloud-parking-api/index.php(23): CApplication->run()
#5 {main}
REQUEST_URI=/cloud-parking-api/edc
---
2019/09/25 13:59:16 [error] [exception.CHttpException.404] exception 'CHttpException' with message 'Tidak bisa mengurai request "themes/default/font-awesome/css/font-awesome.min.css"' in /Applications/MAMP/htdocs/cloud-parking-api/yii-1.1.16/framework/web/CWebApplication.php:286
Stack trace:
#0 /Applications/MAMP/htdocs/cloud-parking-api/yii-1.1.16/framework/web/CWebApplication.php(141): CWebApplication->runController('themes/default/...')
#1 /Applications/MAMP/htdocs/cloud-parking-api/yii-1.1.16/framework/base/CApplication.php(184): CWebApplication->processRequest()
#2 /Applications/MAMP/htdocs/cloud-parking-api/index.php(23): CApplication->run()
#3 {main}
REQUEST_URI=/cloud-parking-api/themes/default/font-awesome/css/font-awesome.min.css
HTTP_REFERER=http://localhost:8888/cloud-parking-api/edc
---
2019/09/25 13:59:16 [error] [exception.CHttpException.404] exception 'CHttpException' with message 'Tidak bisa mengurai request "themes/default/ionicons-2.0.1/css/ionicons.min.css"' in /Applications/MAMP/htdocs/cloud-parking-api/yii-1.1.16/framework/web/CWebApplication.php:286
Stack trace:
#0 /Applications/MAMP/htdocs/cloud-parking-api/yii-1.1.16/framework/web/CWebApplication.php(141): CWebApplication->runController('themes/default/...')
#1 /Applications/MAMP/htdocs/cloud-parking-api/yii-1.1.16/framework/base/CApplication.php(184): CWebApplication->processRequest()
#2 /Applications/MAMP/htdocs/cloud-parking-api/index.php(23): CApplication->run()
#3 {main}
REQUEST_URI=/cloud-parking-api/themes/default/ionicons-2.0.1/css/ionicons.min.css
HTTP_REFERER=http://localhost:8888/cloud-parking-api/edc
---
2019/09/25 13:59:16 [error] [exception.CHttpException.404] exception 'CHttpException' with message 'Tidak bisa mengurai request "themes/default/res/igomad/igomad.js"' in /Applications/MAMP/htdocs/cloud-parking-api/yii-1.1.16/framework/web/CWebApplication.php:286
Stack trace:
#0 /Applications/MAMP/htdocs/cloud-parking-api/yii-1.1.16/framework/web/CWebApplication.php(141): CWebApplication->runController('themes/default/...')
#1 /Applications/MAMP/htdocs/cloud-parking-api/yii-1.1.16/framework/base/CApplication.php(184): CWebApplication->processRequest()
#2 /Applications/MAMP/htdocs/cloud-parking-api/index.php(23): CApplication->run()
#3 {main}
REQUEST_URI=/cloud-parking-api/themes/default/res/igomad/igomad.js
HTTP_REFERER=http://localhost:8888/cloud-parking-api/edc
---
2019/09/25 13:59:16 [error] [exception.CHttpException.404] exception 'CHttpException' with message 'Tidak bisa mengurai request "themes/default/assets/js/jquery-ui.min.js"' in /Applications/MAMP/htdocs/cloud-parking-api/yii-1.1.16/framework/web/CWebApplication.php:286
Stack trace:
#0 /Applications/MAMP/htdocs/cloud-parking-api/yii-1.1.16/framework/web/CWebApplication.php(141): CWebApplication->runController('themes/default/...')
#1 /Applications/MAMP/htdocs/cloud-parking-api/yii-1.1.16/framework/base/CApplication.php(184): CWebApplication->processRequest()
#2 /Applications/MAMP/htdocs/cloud-parking-api/index.php(23): CApplication->run()
#3 {main}
REQUEST_URI=/cloud-parking-api/themes/default/assets/js/jquery-ui.min.js
HTTP_REFERER=http://localhost:8888/cloud-parking-api/edc
---
2019/09/25 13:59:16 [error] [exception.CHttpException.404] exception 'CHttpException' with message 'Tidak bisa mengurai request "themes/default/assets/css/admin.css"' in /Applications/MAMP/htdocs/cloud-parking-api/yii-1.1.16/framework/web/CWebApplication.php:286
Stack trace:
#0 /Applications/MAMP/htdocs/cloud-parking-api/yii-1.1.16/framework/web/CWebApplication.php(141): CWebApplication->runController('themes/default/...')
#1 /Applications/MAMP/htdocs/cloud-parking-api/yii-1.1.16/framework/base/CApplication.php(184): CWebApplication->processRequest()
#2 /Applications/MAMP/htdocs/cloud-parking-api/index.php(23): CApplication->run()
#3 {main}
REQUEST_URI=/cloud-parking-api/themes/default/assets/css/admin.css
HTTP_REFERER=http://localhost:8888/cloud-parking-api/edc
---
2019/09/25 13:59:16 [error] [exception.CHttpException.404] exception 'CHttpException' with message 'Tidak bisa mengurai request "themes/default/assets/js/jquery-ui.min.js"' in /Applications/MAMP/htdocs/cloud-parking-api/yii-1.1.16/framework/web/CWebApplication.php:286
Stack trace:
#0 /Applications/MAMP/htdocs/cloud-parking-api/yii-1.1.16/framework/web/CWebApplication.php(141): CWebApplication->runController('themes/default/...')
#1 /Applications/MAMP/htdocs/cloud-parking-api/yii-1.1.16/framework/base/CApplication.php(184): CWebApplication->processRequest()
#2 /Applications/MAMP/htdocs/cloud-parking-api/index.php(23): CApplication->run()
#3 {main}
REQUEST_URI=/cloud-parking-api/themes/default/assets/js/jquery-ui.min.js
HTTP_REFERER=http://localhost:8888/cloud-parking-api/edc
---
2019/09/25 13:59:16 [error] [exception.CHttpException.404] exception 'CHttpException' with message 'Tidak bisa mengurai request "themes/default/res/igomad/igomad.js"' in /Applications/MAMP/htdocs/cloud-parking-api/yii-1.1.16/framework/web/CWebApplication.php:286
Stack trace:
#0 /Applications/MAMP/htdocs/cloud-parking-api/yii-1.1.16/framework/web/CWebApplication.php(141): CWebApplication->runController('themes/default/...')
#1 /Applications/MAMP/htdocs/cloud-parking-api/yii-1.1.16/framework/base/CApplication.php(184): CWebApplication->processRequest()
#2 /Applications/MAMP/htdocs/cloud-parking-api/index.php(23): CApplication->run()
#3 {main}
REQUEST_URI=/cloud-parking-api/themes/default/res/igomad/igomad.js
HTTP_REFERER=http://localhost:8888/cloud-parking-api/edc
---
2019/09/25 14:00:10 [error] [exception.CHttpException.404] exception 'CHttpException' with message 'Tidak bisa mengurai request "asd"' in /Applications/MAMP/htdocs/cloud-parking-api/yii-1.1.16/framework/web/CWebApplication.php:286
Stack trace:
#0 /Applications/MAMP/htdocs/cloud-parking-api/yii-1.1.16/framework/web/CWebApplication.php(141): CWebApplication->runController('asd')
#1 /Applications/MAMP/htdocs/cloud-parking-api/yii-1.1.16/framework/base/CApplication.php(184): CWebApplication->processRequest()
#2 /Applications/MAMP/htdocs/cloud-parking-api/index.php(23): CApplication->run()
#3 {main}
REQUEST_URI=/cloud-parking-api/asd
---
2019/09/25 14:00:10 [error] [exception.CHttpException.404] exception 'CHttpException' with message 'Tidak bisa mengurai request "themes/default/assets/css/admin.css"' in /Applications/MAMP/htdocs/cloud-parking-api/yii-1.1.16/framework/web/CWebApplication.php:286
Stack trace:
#0 /Applications/MAMP/htdocs/cloud-parking-api/yii-1.1.16/framework/web/CWebApplication.php(141): CWebApplication->runController('themes/default/...')
#1 /Applications/MAMP/htdocs/cloud-parking-api/yii-1.1.16/framework/base/CApplication.php(184): CWebApplication->processRequest()
#2 /Applications/MAMP/htdocs/cloud-parking-api/index.php(23): CApplication->run()
#3 {main}
REQUEST_URI=/cloud-parking-api/themes/default/assets/css/admin.css
HTTP_REFERER=http://localhost:8888/cloud-parking-api/asd
---
2019/09/25 14:00:10 [error] [exception.CHttpException.404] exception 'CHttpException' with message 'Tidak bisa mengurai request "themes/default/ionicons-2.0.1/css/ionicons.min.css"' in /Applications/MAMP/htdocs/cloud-parking-api/yii-1.1.16/framework/web/CWebApplication.php:286
Stack trace:
#0 /Applications/MAMP/htdocs/cloud-parking-api/yii-1.1.16/framework/web/CWebApplication.php(141): CWebApplication->runController('themes/default/...')
#1 /Applications/MAMP/htdocs/cloud-parking-api/yii-1.1.16/framework/base/CApplication.php(184): CWebApplication->processRequest()
#2 /Applications/MAMP/htdocs/cloud-parking-api/index.php(23): CApplication->run()
#3 {main}
REQUEST_URI=/cloud-parking-api/themes/default/ionicons-2.0.1/css/ionicons.min.css
HTTP_REFERER=http://localhost:8888/cloud-parking-api/asd
---
2019/09/25 14:00:10 [error] [exception.CHttpException.404] exception 'CHttpException' with message 'Tidak bisa mengurai request "themes/default/assets/js/jquery-ui.min.js"' in /Applications/MAMP/htdocs/cloud-parking-api/yii-1.1.16/framework/web/CWebApplication.php:286
Stack trace:
#0 /Applications/MAMP/htdocs/cloud-parking-api/yii-1.1.16/framework/web/CWebApplication.php(141): CWebApplication->runController('themes/default/...')
#1 /Applications/MAMP/htdocs/cloud-parking-api/yii-1.1.16/framework/base/CApplication.php(184): CWebApplication->processRequest()
#2 /Applications/MAMP/htdocs/cloud-parking-api/index.php(23): CApplication->run()
#3 {main}
REQUEST_URI=/cloud-parking-api/themes/default/assets/js/jquery-ui.min.js
HTTP_REFERER=http://localhost:8888/cloud-parking-api/asd
---
2019/09/25 14:00:10 [error] [exception.CHttpException.404] exception 'CHttpException' with message 'Tidak bisa mengurai request "themes/default/res/igomad/igomad.js"' in /Applications/MAMP/htdocs/cloud-parking-api/yii-1.1.16/framework/web/CWebApplication.php:286
Stack trace:
#0 /Applications/MAMP/htdocs/cloud-parking-api/yii-1.1.16/framework/web/CWebApplication.php(141): CWebApplication->runController('themes/default/...')
#1 /Applications/MAMP/htdocs/cloud-parking-api/yii-1.1.16/framework/base/CApplication.php(184): CWebApplication->processRequest()
#2 /Applications/MAMP/htdocs/cloud-parking-api/index.php(23): CApplication->run()
#3 {main}
REQUEST_URI=/cloud-parking-api/themes/default/res/igomad/igomad.js
HTTP_REFERER=http://localhost:8888/cloud-parking-api/asd
---
2019/09/25 14:00:10 [error] [exception.CHttpException.404] exception 'CHttpException' with message 'Tidak bisa mengurai request "themes/default/font-awesome/css/font-awesome.min.css"' in /Applications/MAMP/htdocs/cloud-parking-api/yii-1.1.16/framework/web/CWebApplication.php:286
Stack trace:
#0 /Applications/MAMP/htdocs/cloud-parking-api/yii-1.1.16/framework/web/CWebApplication.php(141): CWebApplication->runController('themes/default/...')
#1 /Applications/MAMP/htdocs/cloud-parking-api/yii-1.1.16/framework/base/CApplication.php(184): CWebApplication->processRequest()
#2 /Applications/MAMP/htdocs/cloud-parking-api/index.php(23): CApplication->run()
#3 {main}
REQUEST_URI=/cloud-parking-api/themes/default/font-awesome/css/font-awesome.min.css
HTTP_REFERER=http://localhost:8888/cloud-parking-api/asd
---
2019/09/25 14:00:10 [error] [exception.CHttpException.404] exception 'CHttpException' with message 'Tidak bisa mengurai request "themes/default/assets/js/jquery-ui.min.js"' in /Applications/MAMP/htdocs/cloud-parking-api/yii-1.1.16/framework/web/CWebApplication.php:286
Stack trace:
#0 /Applications/MAMP/htdocs/cloud-parking-api/yii-1.1.16/framework/web/CWebApplication.php(141): CWebApplication->runController('themes/default/...')
#1 /Applications/MAMP/htdocs/cloud-parking-api/yii-1.1.16/framework/base/CApplication.php(184): CWebApplication->processRequest()
#2 /Applications/MAMP/htdocs/cloud-parking-api/index.php(23): CApplication->run()
#3 {main}
REQUEST_URI=/cloud-parking-api/themes/default/assets/js/jquery-ui.min.js
HTTP_REFERER=http://localhost:8888/cloud-parking-api/asd
---
2019/09/25 14:00:10 [error] [exception.CHttpException.404] exception 'CHttpException' with message 'Tidak bisa mengurai request "themes/default/res/igomad/igomad.js"' in /Applications/MAMP/htdocs/cloud-parking-api/yii-1.1.16/framework/web/CWebApplication.php:286
Stack trace:
#0 /Applications/MAMP/htdocs/cloud-parking-api/yii-1.1.16/framework/web/CWebApplication.php(141): CWebApplication->runController('themes/default/...')
#1 /Applications/MAMP/htdocs/cloud-parking-api/yii-1.1.16/framework/base/CApplication.php(184): CWebApplication->processRequest()
#2 /Applications/MAMP/htdocs/cloud-parking-api/index.php(23): CApplication->run()
#3 {main}
REQUEST_URI=/cloud-parking-api/themes/default/res/igomad/igomad.js
HTTP_REFERER=http://localhost:8888/cloud-parking-api/asd
---
2019/09/25 14:00:24 [error] [exception.CHttpException.404] exception 'CHttpException' with message 'Tidak bisa mengurai request "api"' in /Applications/MAMP/htdocs/cloud-parking-api/yii-1.1.16/framework/web/CWebApplication.php:286
Stack trace:
#0 /Applications/MAMP/htdocs/cloud-parking-api/yii-1.1.16/framework/web/CWebApplication.php(141): CWebApplication->runController('')
#1 /Applications/MAMP/htdocs/cloud-parking-api/yii-1.1.16/framework/base/CApplication.php(184): CWebApplication->processRequest()
#2 /Applications/MAMP/htdocs/cloud-parking-api/index.php(23): CApplication->run()
#3 {main}
REQUEST_URI=/cloud-parking-api/
---
2019/09/25 14:00:24 [error] [exception.CHttpException.404] exception 'CHttpException' with message 'Tidak bisa mengurai request "themes/default/assets/css/admin.css"' in /Applications/MAMP/htdocs/cloud-parking-api/yii-1.1.16/framework/web/CWebApplication.php:286
Stack trace:
#0 /Applications/MAMP/htdocs/cloud-parking-api/yii-1.1.16/framework/web/CWebApplication.php(141): CWebApplication->runController('themes/default/...')
#1 /Applications/MAMP/htdocs/cloud-parking-api/yii-1.1.16/framework/base/CApplication.php(184): CWebApplication->processRequest()
#2 /Applications/MAMP/htdocs/cloud-parking-api/index.php(23): CApplication->run()
#3 {main}
REQUEST_URI=/cloud-parking-api/themes/default/assets/css/admin.css
HTTP_REFERER=http://localhost:8888/cloud-parking-api/
---
2019/09/25 14:00:24 [error] [exception.CHttpException.404] exception 'CHttpException' with message 'Tidak bisa mengurai request "themes/default/assets/js/jquery-ui.min.js"' in /Applications/MAMP/htdocs/cloud-parking-api/yii-1.1.16/framework/web/CWebApplication.php:286
Stack trace:
#0 /Applications/MAMP/htdocs/cloud-parking-api/yii-1.1.16/framework/web/CWebApplication.php(141): CWebApplication->runController('themes/default/...')
#1 /Applications/MAMP/htdocs/cloud-parking-api/yii-1.1.16/framework/base/CApplication.php(184): CWebApplication->processRequest()
#2 /Applications/MAMP/htdocs/cloud-parking-api/index.php(23): CApplication->run()
#3 {main}
REQUEST_URI=/cloud-parking-api/themes/default/assets/js/jquery-ui.min.js
HTTP_REFERER=http://localhost:8888/cloud-parking-api/
---
2019/09/25 14:00:24 [error] [exception.CHttpException.404] exception 'CHttpException' with message 'Tidak bisa mengurai request "themes/default/ionicons-2.0.1/css/ionicons.min.css"' in /Applications/MAMP/htdocs/cloud-parking-api/yii-1.1.16/framework/web/CWebApplication.php:286
Stack trace:
#0 /Applications/MAMP/htdocs/cloud-parking-api/yii-1.1.16/framework/web/CWebApplication.php(141): CWebApplication->runController('themes/default/...')
#1 /Applications/MAMP/htdocs/cloud-parking-api/yii-1.1.16/framework/base/CApplication.php(184): CWebApplication->processRequest()
#2 /Applications/MAMP/htdocs/cloud-parking-api/index.php(23): CApplication->run()
#3 {main}
REQUEST_URI=/cloud-parking-api/themes/default/ionicons-2.0.1/css/ionicons.min.css
HTTP_REFERER=http://localhost:8888/cloud-parking-api/
---
2019/09/25 14:00:24 [error] [exception.CHttpException.404] exception 'CHttpException' with message 'Tidak bisa mengurai request "themes/default/font-awesome/css/font-awesome.min.css"' in /Applications/MAMP/htdocs/cloud-parking-api/yii-1.1.16/framework/web/CWebApplication.php:286
Stack trace:
#0 /Applications/MAMP/htdocs/cloud-parking-api/yii-1.1.16/framework/web/CWebApplication.php(141): CWebApplication->runController('themes/default/...')
#1 /Applications/MAMP/htdocs/cloud-parking-api/yii-1.1.16/framework/base/CApplication.php(184): CWebApplication->processRequest()
#2 /Applications/MAMP/htdocs/cloud-parking-api/index.php(23): CApplication->run()
#3 {main}
REQUEST_URI=/cloud-parking-api/themes/default/font-awesome/css/font-awesome.min.css
HTTP_REFERER=http://localhost:8888/cloud-parking-api/
---
2019/09/25 14:00:24 [error] [exception.CHttpException.404] exception 'CHttpException' with message 'Tidak bisa mengurai request "themes/default/res/igomad/igomad.js"' in /Applications/MAMP/htdocs/cloud-parking-api/yii-1.1.16/framework/web/CWebApplication.php:286
Stack trace:
#0 /Applications/MAMP/htdocs/cloud-parking-api/yii-1.1.16/framework/web/CWebApplication.php(141): CWebApplication->runController('themes/default/...')
#1 /Applications/MAMP/htdocs/cloud-parking-api/yii-1.1.16/framework/base/CApplication.php(184): CWebApplication->processRequest()
#2 /Applications/MAMP/htdocs/cloud-parking-api/index.php(23): CApplication->run()
#3 {main}
REQUEST_URI=/cloud-parking-api/themes/default/res/igomad/igomad.js
HTTP_REFERER=http://localhost:8888/cloud-parking-api/
---
2019/09/25 14:00:24 [error] [exception.CHttpException.404] exception 'CHttpException' with message 'Tidak bisa mengurai request "themes/default/assets/js/jquery-ui.min.js"' in /Applications/MAMP/htdocs/cloud-parking-api/yii-1.1.16/framework/web/CWebApplication.php:286
Stack trace:
#0 /Applications/MAMP/htdocs/cloud-parking-api/yii-1.1.16/framework/web/CWebApplication.php(141): CWebApplication->runController('themes/default/...')
#1 /Applications/MAMP/htdocs/cloud-parking-api/yii-1.1.16/framework/base/CApplication.php(184): CWebApplication->processRequest()
#2 /Applications/MAMP/htdocs/cloud-parking-api/index.php(23): CApplication->run()
#3 {main}
REQUEST_URI=/cloud-parking-api/themes/default/assets/js/jquery-ui.min.js
HTTP_REFERER=http://localhost:8888/cloud-parking-api/
---
2019/09/25 14:00:24 [error] [exception.CHttpException.404] exception 'CHttpException' with message 'Tidak bisa mengurai request "themes/default/res/igomad/igomad.js"' in /Applications/MAMP/htdocs/cloud-parking-api/yii-1.1.16/framework/web/CWebApplication.php:286
Stack trace:
#0 /Applications/MAMP/htdocs/cloud-parking-api/yii-1.1.16/framework/web/CWebApplication.php(141): CWebApplication->runController('themes/default/...')
#1 /Applications/MAMP/htdocs/cloud-parking-api/yii-1.1.16/framework/base/CApplication.php(184): CWebApplication->processRequest()
#2 /Applications/MAMP/htdocs/cloud-parking-api/index.php(23): CApplication->run()
#3 {main}
REQUEST_URI=/cloud-parking-api/themes/default/res/igomad/igomad.js
HTTP_REFERER=http://localhost:8888/cloud-parking-api/
---
2019/09/25 14:39:01 [error] [exception.CHttpException.404] exception 'CHttpException' with message 'Tidak bisa mengurai request "api"' in /Applications/MAMP/htdocs/cloud-parking-api/yii-1.1.16/framework/web/CWebApplication.php:286
Stack trace:
#0 /Applications/MAMP/htdocs/cloud-parking-api/yii-1.1.16/framework/web/CWebApplication.php(141): CWebApplication->runController('')
#1 /Applications/MAMP/htdocs/cloud-parking-api/yii-1.1.16/framework/base/CApplication.php(184): CWebApplication->processRequest()
#2 /Applications/MAMP/htdocs/cloud-parking-api/index.php(23): CApplication->run()
#3 {main}
REQUEST_URI=/cloud-parking-api/
---
2019/09/25 14:39:01 [error] [exception.CHttpException.404] exception 'CHttpException' with message 'Tidak bisa mengurai request "themes/default/ionicons-2.0.1/css/ionicons.min.css"' in /Applications/MAMP/htdocs/cloud-parking-api/yii-1.1.16/framework/web/CWebApplication.php:286
Stack trace:
#0 /Applications/MAMP/htdocs/cloud-parking-api/yii-1.1.16/framework/web/CWebApplication.php(141): CWebApplication->runController('themes/default/...')
#1 /Applications/MAMP/htdocs/cloud-parking-api/yii-1.1.16/framework/base/CApplication.php(184): CWebApplication->processRequest()
#2 /Applications/MAMP/htdocs/cloud-parking-api/index.php(23): CApplication->run()
#3 {main}
REQUEST_URI=/cloud-parking-api/themes/default/ionicons-2.0.1/css/ionicons.min.css
HTTP_REFERER=http://localhost:8888/cloud-parking-api/
---
2019/09/25 14:39:01 [error] [exception.CHttpException.404] exception 'CHttpException' with message 'Tidak bisa mengurai request "themes/default/assets/css/admin.css"' in /Applications/MAMP/htdocs/cloud-parking-api/yii-1.1.16/framework/web/CWebApplication.php:286
Stack trace:
#0 /Applications/MAMP/htdocs/cloud-parking-api/yii-1.1.16/framework/web/CWebApplication.php(141): CWebApplication->runController('themes/default/...')
#1 /Applications/MAMP/htdocs/cloud-parking-api/yii-1.1.16/framework/base/CApplication.php(184): CWebApplication->processRequest()
#2 /Applications/MAMP/htdocs/cloud-parking-api/index.php(23): CApplication->run()
#3 {main}
REQUEST_URI=/cloud-parking-api/themes/default/assets/css/admin.css
HTTP_REFERER=http://localhost:8888/cloud-parking-api/
---
2019/09/25 14:39:01 [error] [exception.CHttpException.404] exception 'CHttpException' with message 'Tidak bisa mengurai request "themes/default/font-awesome/css/font-awesome.min.css"' in /Applications/MAMP/htdocs/cloud-parking-api/yii-1.1.16/framework/web/CWebApplication.php:286
Stack trace:
#0 /Applications/MAMP/htdocs/cloud-parking-api/yii-1.1.16/framework/web/CWebApplication.php(141): CWebApplication->runController('themes/default/...')
#1 /Applications/MAMP/htdocs/cloud-parking-api/yii-1.1.16/framework/base/CApplication.php(184): CWebApplication->processRequest()
#2 /Applications/MAMP/htdocs/cloud-parking-api/index.php(23): CApplication->run()
#3 {main}
REQUEST_URI=/cloud-parking-api/themes/default/font-awesome/css/font-awesome.min.css
HTTP_REFERER=http://localhost:8888/cloud-parking-api/
---
2019/09/25 14:39:01 [error] [exception.CHttpException.404] exception 'CHttpException' with message 'Tidak bisa mengurai request "themes/default/res/igomad/igomad.js"' in /Applications/MAMP/htdocs/cloud-parking-api/yii-1.1.16/framework/web/CWebApplication.php:286
Stack trace:
#0 /Applications/MAMP/htdocs/cloud-parking-api/yii-1.1.16/framework/web/CWebApplication.php(141): CWebApplication->runController('themes/default/...')
#1 /Applications/MAMP/htdocs/cloud-parking-api/yii-1.1.16/framework/base/CApplication.php(184): CWebApplication->processRequest()
#2 /Applications/MAMP/htdocs/cloud-parking-api/index.php(23): CApplication->run()
#3 {main}
REQUEST_URI=/cloud-parking-api/themes/default/res/igomad/igomad.js
HTTP_REFERER=http://localhost:8888/cloud-parking-api/
---
2019/09/25 14:39:01 [error] [exception.CHttpException.404] exception 'CHttpException' with message 'Tidak bisa mengurai request "themes/default/assets/js/jquery-ui.min.js"' in /Applications/MAMP/htdocs/cloud-parking-api/yii-1.1.16/framework/web/CWebApplication.php:286
Stack trace:
#0 /Applications/MAMP/htdocs/cloud-parking-api/yii-1.1.16/framework/web/CWebApplication.php(141): CWebApplication->runController('themes/default/...')
#1 /Applications/MAMP/htdocs/cloud-parking-api/yii-1.1.16/framework/base/CApplication.php(184): CWebApplication->processRequest()
#2 /Applications/MAMP/htdocs/cloud-parking-api/index.php(23): CApplication->run()
#3 {main}
REQUEST_URI=/cloud-parking-api/themes/default/assets/js/jquery-ui.min.js
HTTP_REFERER=http://localhost:8888/cloud-parking-api/
---
2019/09/25 14:39:01 [error] [exception.CHttpException.404] exception 'CHttpException' with message 'Tidak bisa mengurai request "themes/default/res/igomad/igomad.js"' in /Applications/MAMP/htdocs/cloud-parking-api/yii-1.1.16/framework/web/CWebApplication.php:286
Stack trace:
#0 /Applications/MAMP/htdocs/cloud-parking-api/yii-1.1.16/framework/web/CWebApplication.php(141): CWebApplication->runController('themes/default/...')
#1 /Applications/MAMP/htdocs/cloud-parking-api/yii-1.1.16/framework/base/CApplication.php(184): CWebApplication->processRequest()
#2 /Applications/MAMP/htdocs/cloud-parking-api/index.php(23): CApplication->run()
#3 {main}
REQUEST_URI=/cloud-parking-api/themes/default/res/igomad/igomad.js
HTTP_REFERER=http://localhost:8888/cloud-parking-api/
---
2019/09/25 14:43:14 [error] [exception.CHttpException.404] exception 'CHttpException' with message 'Tidak bisa mengurai request "api"' in /Applications/MAMP/htdocs/cloud-parking-api/yii-1.1.16/framework/web/CWebApplication.php:286
Stack trace:
#0 /Applications/MAMP/htdocs/cloud-parking-api/yii-1.1.16/framework/web/CWebApplication.php(141): CWebApplication->runController('')
#1 /Applications/MAMP/htdocs/cloud-parking-api/yii-1.1.16/framework/base/CApplication.php(184): CWebApplication->processRequest()
#2 /Applications/MAMP/htdocs/cloud-parking-api/index.php(23): CApplication->run()
#3 {main}
REQUEST_URI=/cloud-parking-api/
---
2019/09/25 14:43:14 [error] [exception.CHttpException.404] exception 'CHttpException' with message 'Tidak bisa mengurai request "themes/default/ionicons-2.0.1/css/ionicons.min.css"' in /Applications/MAMP/htdocs/cloud-parking-api/yii-1.1.16/framework/web/CWebApplication.php:286
Stack trace:
#0 /Applications/MAMP/htdocs/cloud-parking-api/yii-1.1.16/framework/web/CWebApplication.php(141): CWebApplication->runController('themes/default/...')
#1 /Applications/MAMP/htdocs/cloud-parking-api/yii-1.1.16/framework/base/CApplication.php(184): CWebApplication->processRequest()
#2 /Applications/MAMP/htdocs/cloud-parking-api/index.php(23): CApplication->run()
#3 {main}
REQUEST_URI=/cloud-parking-api/themes/default/ionicons-2.0.1/css/ionicons.min.css
HTTP_REFERER=http://localhost:8888/cloud-parking-api/
---
2019/09/25 14:43:14 [error] [exception.CHttpException.404] exception 'CHttpException' with message 'Tidak bisa mengurai request "themes/default/assets/css/admin.css"' in /Applications/MAMP/htdocs/cloud-parking-api/yii-1.1.16/framework/web/CWebApplication.php:286
Stack trace:
#0 /Applications/MAMP/htdocs/cloud-parking-api/yii-1.1.16/framework/web/CWebApplication.php(141): CWebApplication->runController('themes/default/...')
#1 /Applications/MAMP/htdocs/cloud-parking-api/yii-1.1.16/framework/base/CApplication.php(184): CWebApplication->processRequest()
#2 /Applications/MAMP/htdocs/cloud-parking-api/index.php(23): CApplication->run()
#3 {main}
REQUEST_URI=/cloud-parking-api/themes/default/assets/css/admin.css
HTTP_REFERER=http://localhost:8888/cloud-parking-api/
---
2019/09/25 14:43:14 [error] [exception.CHttpException.404] exception 'CHttpException' with message 'Tidak bisa mengurai request "themes/default/font-awesome/css/font-awesome.min.css"' in /Applications/MAMP/htdocs/cloud-parking-api/yii-1.1.16/framework/web/CWebApplication.php:286
Stack trace:
#0 /Applications/MAMP/htdocs/cloud-parking-api/yii-1.1.16/framework/web/CWebApplication.php(141): CWebApplication->runController('themes/default/...')
#1 /Applications/MAMP/htdocs/cloud-parking-api/yii-1.1.16/framework/base/CApplication.php(184): CWebApplication->processRequest()
#2 /Applications/MAMP/htdocs/cloud-parking-api/index.php(23): CApplication->run()
#3 {main}
REQUEST_URI=/cloud-parking-api/themes/default/font-awesome/css/font-awesome.min.css
HTTP_REFERER=http://localhost:8888/cloud-parking-api/
---
2019/09/25 14:43:14 [error] [exception.CHttpException.404] exception 'CHttpException' with message 'Tidak bisa mengurai request "themes/default/assets/js/jquery-ui.min.js"' in /Applications/MAMP/htdocs/cloud-parking-api/yii-1.1.16/framework/web/CWebApplication.php:286
Stack trace:
#0 /Applications/MAMP/htdocs/cloud-parking-api/yii-1.1.16/framework/web/CWebApplication.php(141): CWebApplication->runController('themes/default/...')
#1 /Applications/MAMP/htdocs/cloud-parking-api/yii-1.1.16/framework/base/CApplication.php(184): CWebApplication->processRequest()
#2 /Applications/MAMP/htdocs/cloud-parking-api/index.php(23): CApplication->run()
#3 {main}
REQUEST_URI=/cloud-parking-api/themes/default/assets/js/jquery-ui.min.js
HTTP_REFERER=http://localhost:8888/cloud-parking-api/
---
2019/09/25 14:43:14 [error] [exception.CHttpException.404] exception 'CHttpException' with message 'Tidak bisa mengurai request "themes/default/res/igomad/igomad.js"' in /Applications/MAMP/htdocs/cloud-parking-api/yii-1.1.16/framework/web/CWebApplication.php:286
Stack trace:
#0 /Applications/MAMP/htdocs/cloud-parking-api/yii-1.1.16/framework/web/CWebApplication.php(141): CWebApplication->runController('themes/default/...')
#1 /Applications/MAMP/htdocs/cloud-parking-api/yii-1.1.16/framework/base/CApplication.php(184): CWebApplication->processRequest()
#2 /Applications/MAMP/htdocs/cloud-parking-api/index.php(23): CApplication->run()
#3 {main}
REQUEST_URI=/cloud-parking-api/themes/default/res/igomad/igomad.js
HTTP_REFERER=http://localhost:8888/cloud-parking-api/
---
2019/09/25 14:43:14 [error] [exception.CHttpException.404] exception 'CHttpException' with message 'Tidak bisa mengurai request "themes/default/assets/js/jquery-ui.min.js"' in /Applications/MAMP/htdocs/cloud-parking-api/yii-1.1.16/framework/web/CWebApplication.php:286
Stack trace:
#0 /Applications/MAMP/htdocs/cloud-parking-api/yii-1.1.16/framework/web/CWebApplication.php(141): CWebApplication->runController('themes/default/...')
#1 /Applications/MAMP/htdocs/cloud-parking-api/yii-1.1.16/framework/base/CApplication.php(184): CWebApplication->processRequest()
#2 /Applications/MAMP/htdocs/cloud-parking-api/index.php(23): CApplication->run()
#3 {main}
REQUEST_URI=/cloud-parking-api/themes/default/assets/js/jquery-ui.min.js
HTTP_REFERER=http://localhost:8888/cloud-parking-api/
---
2019/09/25 14:43:14 [error] [exception.CHttpException.404] exception 'CHttpException' with message 'Tidak bisa mengurai request "themes/default/res/igomad/igomad.js"' in /Applications/MAMP/htdocs/cloud-parking-api/yii-1.1.16/framework/web/CWebApplication.php:286
Stack trace:
#0 /Applications/MAMP/htdocs/cloud-parking-api/yii-1.1.16/framework/web/CWebApplication.php(141): CWebApplication->runController('themes/default/...')
#1 /Applications/MAMP/htdocs/cloud-parking-api/yii-1.1.16/framework/base/CApplication.php(184): CWebApplication->processRequest()
#2 /Applications/MAMP/htdocs/cloud-parking-api/index.php(23): CApplication->run()
#3 {main}
REQUEST_URI=/cloud-parking-api/themes/default/res/igomad/igomad.js
HTTP_REFERER=http://localhost:8888/cloud-parking-api/
---
2019/09/25 15:10:26 [error] [exception.CHttpException.404] exception 'CHttpException' with message 'Tidak bisa mengurai request "api"' in /Applications/MAMP/htdocs/cloud-parking-api/yii-1.1.16/framework/web/CWebApplication.php:286
Stack trace:
#0 /Applications/MAMP/htdocs/cloud-parking-api/yii-1.1.16/framework/web/CWebApplication.php(141): CWebApplication->runController('')
#1 /Applications/MAMP/htdocs/cloud-parking-api/yii-1.1.16/framework/base/CApplication.php(184): CWebApplication->processRequest()
#2 /Applications/MAMP/htdocs/cloud-parking-api/index.php(23): CApplication->run()
#3 {main}
REQUEST_URI=/cloud-parking-api/
---
2019/09/25 15:10:26 [error] [exception.CHttpException.404] exception 'CHttpException' with message 'Tidak bisa mengurai request "themes/default/assets/css/admin.css"' in /Applications/MAMP/htdocs/cloud-parking-api/yii-1.1.16/framework/web/CWebApplication.php:286
Stack trace:
#0 /Applications/MAMP/htdocs/cloud-parking-api/yii-1.1.16/framework/web/CWebApplication.php(141): CWebApplication->runController('themes/default/...')
#1 /Applications/MAMP/htdocs/cloud-parking-api/yii-1.1.16/framework/base/CApplication.php(184): CWebApplication->processRequest()
#2 /Applications/MAMP/htdocs/cloud-parking-api/index.php(23): CApplication->run()
#3 {main}
REQUEST_URI=/cloud-parking-api/themes/default/assets/css/admin.css
HTTP_REFERER=http://localhost:8888/cloud-parking-api/
---
2019/09/25 15:10:26 [error] [exception.CHttpException.404] exception 'CHttpException' with message 'Tidak bisa mengurai request "themes/default/font-awesome/css/font-awesome.min.css"' in /Applications/MAMP/htdocs/cloud-parking-api/yii-1.1.16/framework/web/CWebApplication.php:286
Stack trace:
#0 /Applications/MAMP/htdocs/cloud-parking-api/yii-1.1.16/framework/web/CWebApplication.php(141): CWebApplication->runController('themes/default/...')
#1 /Applications/MAMP/htdocs/cloud-parking-api/yii-1.1.16/framework/base/CApplication.php(184): CWebApplication->processRequest()
#2 /Applications/MAMP/htdocs/cloud-parking-api/index.php(23): CApplication->run()
#3 {main}
REQUEST_URI=/cloud-parking-api/themes/default/font-awesome/css/font-awesome.min.css
HTTP_REFERER=http://localhost:8888/cloud-parking-api/
---
2019/09/25 15:10:26 [error] [exception.CHttpException.404] exception 'CHttpException' with message 'Tidak bisa mengurai request "themes/default/assets/js/jquery-ui.min.js"' in /Applications/MAMP/htdocs/cloud-parking-api/yii-1.1.16/framework/web/CWebApplication.php:286
Stack trace:
#0 /Applications/MAMP/htdocs/cloud-parking-api/yii-1.1.16/framework/web/CWebApplication.php(141): CWebApplication->runController('themes/default/...')
#1 /Applications/MAMP/htdocs/cloud-parking-api/yii-1.1.16/framework/base/CApplication.php(184): CWebApplication->processRequest()
#2 /Applications/MAMP/htdocs/cloud-parking-api/index.php(23): CApplication->run()
#3 {main}
REQUEST_URI=/cloud-parking-api/themes/default/assets/js/jquery-ui.min.js
HTTP_REFERER=http://localhost:8888/cloud-parking-api/
---
2019/09/25 15:10:26 [error] [exception.CHttpException.404] exception 'CHttpException' with message 'Tidak bisa mengurai request "themes/default/ionicons-2.0.1/css/ionicons.min.css"' in /Applications/MAMP/htdocs/cloud-parking-api/yii-1.1.16/framework/web/CWebApplication.php:286
Stack trace:
#0 /Applications/MAMP/htdocs/cloud-parking-api/yii-1.1.16/framework/web/CWebApplication.php(141): CWebApplication->runController('themes/default/...')
#1 /Applications/MAMP/htdocs/cloud-parking-api/yii-1.1.16/framework/base/CApplication.php(184): CWebApplication->processRequest()
#2 /Applications/MAMP/htdocs/cloud-parking-api/index.php(23): CApplication->run()
#3 {main}
REQUEST_URI=/cloud-parking-api/themes/default/ionicons-2.0.1/css/ionicons.min.css
HTTP_REFERER=http://localhost:8888/cloud-parking-api/
---
2019/09/25 15:10:26 [error] [exception.CHttpException.404] exception 'CHttpException' with message 'Tidak bisa mengurai request "themes/default/res/igomad/igomad.js"' in /Applications/MAMP/htdocs/cloud-parking-api/yii-1.1.16/framework/web/CWebApplication.php:286
Stack trace:
#0 /Applications/MAMP/htdocs/cloud-parking-api/yii-1.1.16/framework/web/CWebApplication.php(141): CWebApplication->runController('themes/default/...')
#1 /Applications/MAMP/htdocs/cloud-parking-api/yii-1.1.16/framework/base/CApplication.php(184): CWebApplication->processRequest()
#2 /Applications/MAMP/htdocs/cloud-parking-api/index.php(23): CApplication->run()
#3 {main}
REQUEST_URI=/cloud-parking-api/themes/default/res/igomad/igomad.js
HTTP_REFERER=http://localhost:8888/cloud-parking-api/
---
2019/09/25 15:10:27 [error] [exception.CHttpException.404] exception 'CHttpException' with message 'Tidak bisa mengurai request "themes/default/assets/js/jquery-ui.min.js"' in /Applications/MAMP/htdocs/cloud-parking-api/yii-1.1.16/framework/web/CWebApplication.php:286
Stack trace:
#0 /Applications/MAMP/htdocs/cloud-parking-api/yii-1.1.16/framework/web/CWebApplication.php(141): CWebApplication->runController('themes/default/...')
#1 /Applications/MAMP/htdocs/cloud-parking-api/yii-1.1.16/framework/base/CApplication.php(184): CWebApplication->processRequest()
#2 /Applications/MAMP/htdocs/cloud-parking-api/index.php(23): CApplication->run()
#3 {main}
REQUEST_URI=/cloud-parking-api/themes/default/assets/js/jquery-ui.min.js
HTTP_REFERER=http://localhost:8888/cloud-parking-api/
---
2019/09/25 15:10:27 [error] [exception.CHttpException.404] exception 'CHttpException' with message 'Tidak bisa mengurai request "themes/default/res/igomad/igomad.js"' in /Applications/MAMP/htdocs/cloud-parking-api/yii-1.1.16/framework/web/CWebApplication.php:286
Stack trace:
#0 /Applications/MAMP/htdocs/cloud-parking-api/yii-1.1.16/framework/web/CWebApplication.php(141): CWebApplication->runController('themes/default/...')
#1 /Applications/MAMP/htdocs/cloud-parking-api/yii-1.1.16/framework/base/CApplication.php(184): CWebApplication->processRequest()
#2 /Applications/MAMP/htdocs/cloud-parking-api/index.php(23): CApplication->run()
#3 {main}
REQUEST_URI=/cloud-parking-api/themes/default/res/igomad/igomad.js
HTTP_REFERER=http://localhost:8888/cloud-parking-api/
---
